Place,Name,BirthDate,Sex,BirthYear,Age,Country,Equipment,Division,BodyweightKg,WeightClassKg,Squat1Kg,Squat2Kg,Squat3Kg,Best3SquatKg,Bench1Kg,Bench2Kg,Bench3Kg,Best3BenchKg,Deadlift1Kg,Deadlift2Kg,Deadlift3Kg,Best3DeadliftKg,TotalKg,Event
1,Anna Staszczak,,F,,,Poland,Wraps,J20-23,65.6,67.5,110,125,-135,125,52.5,57.5,60,60,130,140,145,145,330,SBD
2,Aleksandra Suchodolska,,F,,,Poland,Wraps,J20-23,66.8,67.5,95,100,105,105,55,60,-62.5,60,120,-130,-130,120,285,SBD
1,Daria Postrożna,,F,,,Poland,Wraps,J20-23,69,75,-170,180,-190,180,82.5,-90,90,90,170,-180,-187.5,170,440,SBD
1,Agnieszka Golonko,,F,,,Poland,Wraps,J20-23,78.4,82.5,105,115,-125,115,60,65,-70,65,130,140,145,145,325,SBD
1,Magdalena Dobrowolska,,F,,,Poland,Wraps,J20-23,84.5,90,-140,-140,140,140,67.5,-70,70,70,137.5,145,152.5,152.5,362.5,SBD
1,Katarzyna Ratajczyk,,F,,,Poland,Wraps,M40-49,65.4,67.5,-85,85,90,90,32.5,35,-37.5,35,110,115,120,120,245,SBD
1,Anna Kalinowska,,F,,,Poland,Wraps,M40-49,74.6,75,-150,155,160,160,70,72.5,75,75,132.5,142.5,150,150,385,SBD
1,Weronika Purgał,,F,,,Poland,Wraps,MPF,81.8,,125,132.5,140,140,65,67.5,-70,67.5,120,130,-140,130,337.5,SBD
1,Julita Kotyńska,,F,,,Poland,Wraps,Open,50.4,52,110,117.5,120,120,55,-60,-60,55,135,142.5,147.5,147.5,322.5,SBD
2,Oksana Onyshchenko,,F,,,Poland,Wraps,Open,51.7,52,-110,110,120,120,45,50,-52.5,50,115,125,135,135,305,SBD
3,Paulina Glanc,,F,,,Poland,Wraps,Open,49.3,52,95,-100,-100,95,55,60,-65,60,-135,142.5,-152.5,142.5,297.5,SBD
1,Paula Wasilewska,,F,,,Poland,Wraps,Open,54.5,56,140,145,-150,145,75,80,81,81,150,155,160,160,386,SBD
1,Marta Stefaska,,F,,,Poland,Wraps,Open,57.3,60,117.5,-125,127.5,127.5,72.5,-75,-75,72.5,120,125,-130,125,325,SBD
2,Edyta Pajak,,F,,,Poland,Wraps,Open,58.9,60,-115,115,125,125,50,55,57.5,57.5,120,130,-135,130,312.5,SBD
3,Anna Malorny,,F,,,Poland,Wraps,Open,58.8,60,115,-120,-120,115,47.5,52.5,-55,52.5,120,-125,-125,120,287.5,SBD
1,Natalia Hupało,,F,,,Poland,Wraps,Open,67,67.5,150,-160,-160,150,85,-90,-90,85,145,155,-160,155,390,SBD
1,Marta Miksa,,F,,,Poland,Wraps,Open,69.1,75,185,200,205,205,95,100,105,105,170,-180,-180,170,480,SBD
2,Magdalena Jagnicka,,F,,,Poland,Wraps,Open,72.5,75,130,137.5,-145,137.5,60,62.5,-65,62.5,135,142.5,150,150,350,SBD
3,Adrianna Pluta,,F,,,Poland,Wraps,Open,72.2,75,120,130,140,140,50,-52.5,52.5,52.5,130,140,-150,140,332.5,SBD
1,Weronika Purgał,,F,,,Poland,Wraps,Open,81.8,82.5,125,132.5,140,140,65,67.5,-70,67.5,120,130,-140,130,337.5,SBD
1,Nadia Wieszczyk,,F,,,Poland,Wraps,T13-15,53.6,56,85,92.5,-96,92.5,50,52.5,55,55,-110,110,120,120,267.5,SBD
1,Natasza Krawczyk,,F,,,Poland,Wraps,T13-15,63.1,67.5,-70,75,87.5,87.5,,32.5,37.5,37.5,80,-90,101,101,226,SBD
1,Anastasiia Reutova,,F,,,Poland,Wraps,T16-17,64.8,67.5,105,110,117.5,117.5,-65,72.5,75,75,-150,150,-160,150,342.5,SBD
1,Nikola Gorecka,,F,,,Poland,Wraps,T18-19,65.8,67.5,-155,160,-165,160,75,-80,-80,75,135,147.5,-155,147.5,382.5,SBD
1,Maciej Domanski,,M,,,Poland,Wraps,T13-15,60,60,120,130,-140,130,80,85,90,90,120,130,-140,130,350,SBD
2,Tomasz Jasiewicz,,M,,,Poland,Wraps,T13-15,57.4,60,80,100,-107.5,100,40,52.5,55,55,100,121,-131,121,276,SBD
3,Patryk Federowicz,,M,,,Poland,Wraps,T13-15,48.4,60,30,35,-45,35,25,,30,30,45,55,-67.5,55,120,SBD
1,Mikolaj Przewodek,,M,,,Poland,Wraps,T13-15,66.9,67.5,140,152.5,160,160,127.5,135,-140,135,-180,-185,185,185,480,SBD
2,Martin Balla,,M,,,Slovakia,Wraps,T13-15,67.4,67.5,115,-125,-125,115,75,-85,85,85,170,190,200,200,400,SBD
1,Jakub Stefan,,M,,,Poland,Wraps,T13-15,75,75,100,-120,140,140,90,95,97.5,97.5,180,190,,190,427.5,SBD
2,Franciszek Kość,2008-06-13,M,,,Poland,Wraps,T13-15,72.9,75,105,115,-130,115,70,80,-90,80,100,117.5,-130,117.5,312.5,SBD
1,Hubert Faligowski,,M,,,Poland,Wraps,T13-15,79,82.5,165,175,-185,175,85,90,-95,90,-160,170,180,180,445,SBD
1,Ivan Kovtun,,M,,,Poland,Wraps,T13-15,88.2,90,125,135,145,145,90,95,100,100,155,165,175,175,420,SBD
1,Dawid Kierszka,,M,,,Poland,Wraps,T13-15,110,110,190,202.5,212.5,212.5,107.5,112.5,-117.5,112.5,190,202.5,-215,202.5,527.5,SBD
1,Marcel Kedra,2006-08-08,M,,,Poland,Wraps,T16-17,66,67.5,-180,180,-192.5,180,107.5,-112.5,112.5,112.5,187.5,200,207.5,207.5,500,SBD
1,Adam Bielejewski,2006-03-12,M,,,Poland,Wraps,T16-17,73.7,75,202.5,215,225,225,115,122.5,-127.5,122.5,210,220,-230,220,567.5,SBD
2,Mateusz Grys,,M,,,Poland,Wraps,T16-17,74.3,75,150,162.5,170,170,110,117.5,122.5,122.5,205,215,-221,215,507.5,SBD
DQ,Artur Vardanyan,,M,,,Armenia,Wraps,T16-17,71.5,75,-150,-150,-150,,,,,,-180,180,190,190,,SBD
1,Bartłomiej Ścibisz,,M,,,Poland,Wraps,T16-17,80,82.5,180,-185,-185,180,100,-105,-105,100,175,187.5,-200,187.5,467.5,SBD
1,Karol Zembrzuski,,M,,,Poland,Wraps,T16-17,88.6,90,165,172.5,182.5,182.5,-112.5,115,-120,115,180,190,205,205,502.5,SBD
2,Bartosz Jarzabkowski,,M,,,Poland,Wraps,T16-17,89.2,90,140,150,-155,150,100,110,-115,110,160,170,-190,170,430,SBD
1,Jan Masior,,M,,,Poland,Wraps,T16-17,96.5,100,200,-210,215,215,-110,112.5,117.5,117.5,220,-235,-235,220,552.5,SBD
2,Maksymilian Kucharczyk,,M,,,Poland,Wraps,T16-17,98.9,100,185,200,,200,115,125,-135,125,190,210,-225,210,535,SBD
1,Dominik Rutkowski,,M,,,Poland,Wraps,T16-17,107.6,110,195,207.5,212.5,212.5,112.5,117.5,122.5,122.5,230,245,252.5,252.5,587.5,SBD
2,Antoni Wawer,,M,,,Poland,Wraps,T16-17,109,110,200,210,-215,210,117.5,125,130,130,215,227.5,240,240,580,SBD
1,Karol Jaskulski,,M,,,Poland,Wraps,T16-17,152.2,140+,190,205,220,220,120,130,-135,130,180,200,-210,200,550,SBD
1,Jakub Bońkowski,,M,,,Poland,Wraps,T18-19,65.5,67.5,175,190,-201,190,85,90,92.5,92.5,230,-243,243,243,525.5,SBD
1,Vladyslav Nefelt,,M,,,Poland,Wraps,T18-19,74.1,75,200,210,220,220,115,120,-127.5,120,220,230,235,235,575,SBD
2,Albert Papliński,,M,,,Poland,Wraps,T18-19,74.5,75,-215,222.5,-240,222.5,115,122.5,-127.5,122.5,215,225,-235,225,570,SBD
3,Mateusz Bajtek,,M,,,Poland,Wraps,T18-19,74.4,75,170,180,-195,180,120,-130,-130,120,200,210,-220,210,510,SBD
1,Petr Havlík,,M,,,Czechia,Wraps,T18-19,80.9,82.5,220,230,-240,230,120,127.5,-132.5,127.5,-210,220,235,235,592.5,SBD
2,Kamil Płaksa,,M,,,Poland,Wraps,T18-19,81,82.5,180,195,-205,195,120,-130,-130,120,220,230,-240,230,545,SBD
3,Szymon Smiechowicz,,M,,,Poland,Wraps,T18-19,80,82.5,160,175,-185,175,85,-90,90,90,205,215,-225,215,480,SBD
1,Dawid Bieńko,,M,,,Poland,Wraps,T18-19,88.3,90,255,262.5,,262.5,140,145,147.5,147.5,255,265,-270,265,675,SBD
2,Mikołaj Wawrzykowski,,M,,,Poland,Wraps,T18-19,87.6,90,-210,210,225,225,115,122.5,-130,122.5,230,240,-250,240,587.5,SBD
3,Kacper Slodkiewicz,,M,,,Poland,Wraps,T18-19,89.1,90,195,205,-207.5,205,122.5,-130,-130,122.5,222.5,232.5,240,240,567.5,SBD
4,Bohdan Zalevskyi,,M,,,Poland,Wraps,T18-19,85.7,90,160,170,180,180,82.5,90,95,95,170,-190,200,200,475,SBD
1,Maksymilian Sałek,,M,,,Poland,Wraps,T18-19,98.5,100,200,-212.5,220,220,135,142.5,-152.5,142.5,180,195,210,210,572.5,SBD
DQ,Tomáš Tarkoš,,M,,,Slovakia,Wraps,T18-19,96.2,100,-210,-210,-210,,115,125,-130,125,210,-220,220,220,,SBD
1,Julian Szelezniak-Bialkowski,,M,,,Poland,Wraps,T18-19,106.9,110,245,-260,-260,245,130,140,-150,140,230,250,-265,250,635,SBD
1,Mateusz Przechocki,,M,,,Poland,Wraps,T18-19,122.9,125,280,-300,-300,280,140,147.5,-152.5,147.5,240,255,-272.5,255,682.5,SBD
1,Jakub Makosz,,M,,,Poland,Wraps,J20-23,70.7,75,-190,190,-200,190,135,-140,-140,135,230,240,-245,240,565,SBD
2,Mateusz Stermolewski,,M,,,Poland,Wraps,J20-23,74.8,75,210,217.5,-225,217.5,-110,110,115,115,210,-220,-220,210,542.5,SBD
3,Pawel Praskol,,M,,,Poland,Wraps,J20-23,74.9,75,-170,170,-175,170,105,110,-112.5,110,190,-200,-200,190,470,SBD
4,Dominik Satora,,M,,,Poland,Wraps,J20-23,73.9,75,130,140,-150,140,90,95,-100,95,160,170,-180,170,405,SBD
1,Dominik Boczek,,M,,,Poland,Wraps,J20-23,81.5,82.5,220,-240,-240,220,150,-157.5,-157.5,150,230,-245,-245,230,600,SBD
2,Paweł Zabrocki,,M,,,Poland,Wraps,J20-23,82.4,82.5,165,175,190,190,135,140,-142.5,140,180,195,210,210,540,SBD
3,Filip Zabawa,,M,,,Poland,Wraps,J20-23,77.2,82.5,185,-192.5,192.5,192.5,100,-107.5,-107.5,100,195,-200,-200,195,487.5,SBD
1,Miklós Kelemen,,M,,,Hungary,Wraps,J20-23,88.1,90,260,275,280,280,170,180,-182.5,180,270,282.5,,282.5,742.5,SBD
2,Bartosz Szymaszko,,M,,,Poland,Wraps,J20-23,90,90,215,225,235,235,130,137.5,140,140,265,275,-280,275,650,SBD
3,Michal Danieluk,,M,,,Poland,Wraps,J20-23,89,90,220,-230,230,230,150,155,160,160,220,230,240,240,630,SBD
4,Jakub Cyka,,M,,,Poland,Wraps,J20-23,88.3,90,-215,-215,215,215,120,-125,-125,120,225,235,-240,235,570,SBD
5,Jakub Kopońka,,M,,,Poland,Wraps,J20-23,87.7,90,-205,205,-220,205,120,-130,-130,120,220,-230,235,235,560,SBD
6,Klaudiusz Drewa,,M,,,Poland,Wraps,J20-23,89,90,195,-205,-215,195,130,135,-140,135,200,210,220,220,550,SBD
7,Kacper Kłaptocz,,M,,,Poland,Wraps,J20-23,83,90,192.5,-202.5,-205,192.5,-122.5,122.5,-125,122.5,225,-235,-240,225,540,SBD
8,Filip Nowak,,M,,,Poland,Wraps,J20-23,87.8,90,185,-192.5,-195,185,100,107.5,-110,107.5,205,215,222.5,222.5,515,SBD
9,Oleksandr Bretsko,,M,,,,Wraps,J20-23,90,90,167.5,177.5,187.5,187.5,105,115,-120,115,175,187.5,-197.5,187.5,490,SBD
1,Maciej Siwinski,,M,,,Poland,Wraps,J20-23,95.4,100,220,232.5,242.5,242.5,132.5,137.5,140,140,232.5,240,250,250,632.5,SBD
2,Kacper Malkowski,,M,,,Poland,Wraps,J20-23,96.3,100,220,230,237.5,237.5,127.5,132.5,137.5,137.5,220,227.5,235,235,610,SBD
3,Wojciech Nawrot,,M,,,Poland,Wraps,J20-23,90.5,100,-165,175,-190,175,95,105,-112.5,105,200,215,-220,215,495,SBD
1,Piotr Bilski,,M,,,Poland,Wraps,J20-23,108.5,110,265,280,-287.5,280,165,-172.5,-172.5,165,-275,275,285,285,730,SBD
2,Jakub Gosak,,M,,,Poland,Wraps,J20-23,105.4,110,245,255,-260,255,-130,130,137.5,137.5,250,260,270,270,662.5,SBD
DQ,Sebastian Miškovič,,M,,,Slovakia,Wraps,J20-23,108.4,110,-265,-280,-280,,180,-196,-196,180,,,,,,SBD
1,Anton Koshyl,,M,,,Poland,Wraps,J20-23,122.8,125,340,360,-375,360,190,200,-202.5,200,310,-340,340,340,900,SBD
2,Wiktor Michalski,,M,,,Poland,Wraps,J20-23,122.7,125,310,-330,330,330,165,-175,-175,165,290,310,-317.5,310,805,SBD
3,Stanisław Biernat,,M,,,Poland,Wraps,J20-23,110.4,125,265,-280,280,280,155,162.5,167.5,167.5,250,260,-270,260,707.5,SBD
4,Igor Beker,,M,,,Poland,Wraps,J20-23,114.7,125,200,220,-230,220,145,155,160,160,215,230,250,250,630,SBD
1,Arkadiusz Tatarczak,,M,,,Poland,Wraps,M40-49,74.3,75,180,190,-201,190,100,110,-115,110,180,190,195,195,495,SBD
1,Igor Tomson,,M,,,Estonia,Wraps,M40-49,81.9,82.5,-210,210,-225,210,135,-142.5,-142.5,135,235,245,-252.5,245,590,SBD
2,Marek Witkowski,,M,,,Poland,Wraps,M40-49,76.7,82.5,120,-130,-130,120,75,77.5,,77.5,150,157.5,,157.5,355,SBD
1,Robert Kucza,,M,,,Poland,Wraps,M40-49,90,90,100,-110,110,110,100,110,120,120,160,180,-190,180,410,SBD
1,Pawel Szewczyk,,M,,,Poland,Wraps,M40-49,109.2,110,-240,-250,250,250,120,125,-130,125,265,275,-280,275,650,SBD
1,Maciej Czereba,,M,,,Poland,Wraps,M50-59,99.2,100,220,230,235,235,125,132.5,140,140,245,-260,262.5,262.5,637.5,SBD
1,Mariusz Rufkiewicz,,M,,,Poland,Wraps,M50-59,101,110,200,221,225,225,135,145,150,150,230,245,-255,245,620,SBD
1,Mieczysłąw Maczka,,M,,,Germany,Wraps,M60-69,82.3,82.5,130,147.5,152.5,152.5,102.5,110,115,115,145,162.5,168,168,435.5,SBD
1,Peter Herák,,M,,,Slovakia,Wraps,M60-69,89.4,90,200,210,215,215,105,110,115,115,-200,200,-225,200,530,SBD
1,Seyran Abrahamyan,,M,,,Armenia,Wraps,Open,56,60,90,100,110,110,85,95,100,100,165,-185,-185,165,375,SBD
1,Florián Tichý,,M,,,Slovakia,Wraps,Open,66.7,67.5,200,-207.5,-207.5,200,145,152.5,-160,152.5,220,230,-235,230,582.5,SBD
2,Aleksander Katta,,M,,,Poland,Wraps,Open,65.8,67.5,150,157.5,165,165,100,105,110,110,172.5,182.5,190,190,465,SBD
1,Michal Ziemnicki,,M,,,Poland,Wraps,Open,74.1,75,200,-210,-210,200,100,-105,-105,100,200,-210,,200,500,SBD
1,Markó Mari,,M,,,Hungary,Wraps,Open,81.8,82.5,240,260,-270,260,175,185,-187.5,185,270,290,-300,290,735,SBD
2,Szymon Okoniewski,,M,,,Poland,Wraps,Open,80,82.5,190,202.5,-215,202.5,110,117.5,125,125,235,245,-255,245,572.5,SBD
3,Bartosz Mrynarczyk,,M,,,Poland,Wraps,Open,76.9,82.5,180,-190,-190,180,105,110,115,115,210,220,230,230,525,SBD
4,Adam Maruszak,,M,,,Poland,Wraps,Open,81.6,82.5,-170,-170,170,170,130,-140,-140,130,190,200,-210,200,500,SBD
5,Mateusz Kunik,,M,,,Poland,Wraps,Open,82.4,82.5,170,180,-185,180,100,-105,-105,100,180,190,-200,190,470,SBD
DQ,Adrian Kopalski,,M,,,Poland,Wraps,Open,81.7,82.5,-270,-270,-270,,140,147.5,-152.5,147.5,-260,,,,,SBD
DQ,Bartlomiej Wiercieski,,M,,,Poland,Wraps,Open,81.8,82.5,-245,-245,-245,,125,130,135,135,255,-275,-277.5,255,,SBD
1,Marta Lewandowska,,F,,,Poland,Wraps,Open,62.3,67.5,112.5,117.5,122.5,122.5,,,,,,,,,122.5,S
1,Krystyna Puzio,,F,,,Poland,Wraps,Open,102,90+,150,160,171,171,,,,,,,,,171,S
1,Nikodem Romanowski,,M,,,Poland,Wraps,Open,89.9,90,300,312.5,,312.5,175,180,185,185,290,-305,-305,290,787.5,SBD
2,Hubert Przybylski,,M,,,Poland,Wraps,Open,85.1,90,260,-277.5,280,280,165,175,-182.5,175,305,317.5,-325,317.5,772.5,SBD
3,Marek Żytka,,M,,,Poland,Wraps,Open,89,90,280,295,,295,180,187.5,-192.5,187.5,250,270,-282.5,270,752.5,SBD
4,Jakub Dušek,,M,,,Czechia,Wraps,Open,83.2,90,255,285,-295,285,140,-150,-150,140,260,280,-290,280,705,SBD
5,Michał Łopata,,M,,,Poland,Wraps,Open,89.2,90,250,260,-265,260,145,-150,150,150,-290,-290,290,290,700,SBD
6,Filip Dec,,M,,,Poland,Wraps,Open,89.5,90,235,-250,-250,235,150,160,-165,160,260,270,-300,270,665,SBD
7,Michał Marczak,,M,,,Poland,Wraps,Open,88.5,90,210,225,240,240,170,180,187.5,187.5,210,227.5,-242.5,227.5,655,SBD
8,Kamil Rzóska,,M,,,Poland,Wraps,Open,89.2,90,230,245,255,255,120,130,135,135,210,230,240,240,630,SBD
9,Tomasz Kolasiński,,M,,,Poland,Wraps,Open,87.6,90,217.5,-230,-230,217.5,120,127.5,130,130,225,240,252.5,252.5,600,SBD
10,Łukasz Dobrowolski,,M,,,Poland,Wraps,Open,89.7,90,190,200,207.5,207.5,142.5,150,152.5,152.5,225,-235,-235,225,585,SBD
11,Adrian Milewski,,M,,,Poland,Wraps,Open,88.8,90,205,215,,215,132.5,-140,-140,132.5,210,220,230,230,577.5,SBD
12,Marcin Michajłow,,M,,,Poland,Wraps,Open,89.9,90,-215,-220,220,220,120,125,-127.5,125,230,-237.5,-240,230,575,SBD
13,Bartosz Skalmierski,,M,,,Poland,Wraps,Open,86.4,90,195,205,-210,205,95,100,-102.5,100,170,185,-200,185,490,SBD
1,Zoltán Debreczeni,,M,,,Hungary,Wraps,Open,98.1,100,285,300,310,310,200,207.5,212,212,315,330,-340,330,852,SBD
2,Jože Šinkovec,,M,,,Slovenia,Wraps,Open,93.7,100,300,325,332.5,332.5,175,185,190,190,260,277.5,290,290,812.5,SBD
3,Milán Apaceller,,M,,,Hungary,Wraps,Open,95,100,290,310,320,320,-185,190,192.5,192.5,300,-305,-305,300,812.5,SBD
4,Grzegorz Ralka,,M,,,Poland,Wraps,Open,99.1,100,240,-255,-255,240,155,162.5,170,170,-295,-305,305,305,715,SBD
5,Kacper Kowalewski,,M,,,Poland,Wraps,Open,99.1,100,230,-240,-240,230,160,167.5,-172.5,167.5,-230,240,252.5,252.5,650,SBD
6,Piotr Celeban,,M,,,Poland,Wraps,Open,94.3,100,210,225,235,235,110,120,125,125,210,225,-240,225,585,SBD
7,Damian Matuszczak,,M,,,Poland,Wraps,Open,98.6,100,-210,210,215,215,125,130,132.5,132.5,-210,210,-230,210,557.5,SBD
8,Artur Smolarkiewicz,,M,,,Poland,Wraps,Open,99.4,100,190,200,-207.5,200,115,120,-125,120,190,205,-212.5,205,525,SBD
9,Aliaksandr Pukhalski,,M,,,Poland,Wraps,Open,97.3,100,175,185,190,190,115,120,125,125,205,-215,-215,205,520,SBD
10,Radoslaw Sliwka,,M,,,Poland,Wraps,Open,98.8,100,-190,190,,190,95,100,-105,100,190,-200,200,200,490,SBD
DQ,Jakub Borkowski,,M,,,Poland,Wraps,Open,99.4,100,-215,-215,215,215,155,160,-165,160,-260,-260,,,,SBD
1,Róbert Tumpek,,M,,,Hungary,Wraps,Open,103.3,110,335,360,370,370,182.5,187.5,192.5,192.5,330,357.5,-370,357.5,920,SBD
2,Paweł Łukomski,,M,,,Poland,Wraps,Open,109.3,110,320,335,-345,335,155,162.5,,162.5,320,330,-340,330,827.5,SBD
3,Artur Ziółkowski,,M,,,Poland,Wraps,Open,108.9,110,300,315,327.5,327.5,165,170,-175,170,275,285,-295,285,782.5,SBD
4,Andrzej Mitera,,M,,,Poland,Wraps,Open,104.1,110,260,280,-290,280,165,175,180,180,280,300,-305,300,760,SBD
5,Bartłomiej Szacmajer,,M,,,Poland,Wraps,Open,108.1,110,275,290,-300,290,170,177.5,-185,177.5,260,270,275,275,742.5,SBD
6,Adrian Masny,,M,,,Poland,Wraps,Open,110,110,280,-290,-300,280,170,-172.5,,170,275,292.5,-300,292.5,742.5,SBD
7,Marcin Gryczon,,M,,,Poland,Wraps,Open,108,110,250,260,270,270,160,-170,-170,160,240,250,260,260,690,SBD
8,Michał Nowak,1997-05-13,M,,,Poland,Wraps,Open,100.7,110,255,265,-275,265,150,-152.5,152.5,152.5,250,262.5,-272.5,262.5,680,SBD
9,Tomasz Mleczek,,M,,,Poland,Wraps,Open,106.6,110,190,-205,205,205,150,157.5,162.5,162.5,220,235,245,245,612.5,SBD
1,Tibor Fülpesi,,M,,,Hungary,Wraps,Open,123.2,125,300,312.5,320,320,205,210,-215,210,320,332.5,340,340,870,SBD
2,Dawid Derel,,M,,,Poland,Wraps,Open,110.2,125,-300,310,-320,310,145,152.5,-160,152.5,285,310,315,315,777.5,SBD
3,Karol Frąckowiak,,M,,,Poland,Wraps,Open,120.3,125,300,315,-325,315,155,160,165,165,280,-290,-300,280,760,SBD
4,Karol Drozdowski,,M,,,Poland,Wraps,Open,114.3,125,285,305,-310,305,120,125,130,130,260,280,-300,280,715,SBD
5,Łukasz Machynia,,M,,,Poland,Wraps,Open,113,125,225,235,245,245,160,170,-175,170,260,285,,285,700,SBD
1,Adrian Kasprzycki,,M,,,Poland,Wraps,Open,133.3,140,280,300,315,315,190,200,210,210,245,260,275,275,800,SBD
1,Igor Tomson,,M,,,Estonia,Wraps,M40-49,81.9,82.5,210,,,210,,,,,,,,,210,S
1,Dariusz Bielowski,,M,,,Poland,Wraps,M40-49,87,90,201,215,-220,215,,,,,,,,,215,S
1,Ivan Giňovský,,M,,,Slovakia,Wraps,M50-59,98.2,100,205,-220,220,220,,,,,,,,,220,S
1,Mariusz Rufkiewicz,,M,,,Poland,Wraps,M50-59,101,110,225,,,225,,,,,,,,,225,S
1,Mieczysłąw Maczka,,M,,,Germany,Wraps,M60-69,82.3,82.5,152.5,,,152.5,,,,,,,,,152.5,S
1,Peter Herák,,M,,,Slovakia,Wraps,M60-69,89.4,90,215,,,215,,,,,,,,,215,S
1,Kacper Cecko,,M,,,Poland,Wraps,Open,88.4,90,180,190,-200,190,,,,,,,,,190,S
DQ,Vítězslav Ladýř,,M,,,Czechia,Wraps,Open,89.5,90,-280,-300,-300,,,,,,,,,,,S
1,András Vass,,M,,,Slovakia,Wraps,Open,90.7,100,170,185,200,200,,,,,,,,,200,S
1,Karol Frąckowiak,,M,,,Poland,Wraps,Open,120.3,125,315,,,315,,,,,,,,,315,S
DQ,Gábor Kocsis,,M,,,Hungary,Wraps,Open,133,140,-330,-330,-330,,,,,,,,,,,S
1,Alik Khachatryan,,M,,,Armenia,Wraps,T13-15,59.1,60,80,90,95,95,,,,,,,,,95,S
1,Livia Tal Nemethne,,F,,,Hungary,Multi-ply,M50-59,66.8,67.5,,,,,-70,70,-75,70,,,,,70,B
1,Vanda Savanyú,,F,,,Hungary,Multi-ply,T13-15,73.8,75,,,,,100,102.5,,102.5,,,,,102.5,B
1,Klaudia Savanyu,,F,,,Hungary,Multi-ply,T18-19,56.9,60,,,,,75,-85,85,85,,,,,85,B
1,Beáta Szalay,,F,,,Hungary,Raw,M40-49,73.9,75,,,,,70,75,77.5,77.5,,,,,77.5,B
1,Mónika Molnár,,F,,,Hungary,Raw,M50-59,67.3,67.5,,,,,50,52.5,-55,52.5,,,,,52.5,B
2,Brigitte Maczka,,F,,,Germany,Raw,M50-59,66.2,67.5,,,,,32.5,37.5,-40,37.5,,,,,37.5,B
1,Krystyna Puzio,,F,,,Poland,Raw,M50-59,102,90+,,,,,70,-75,-81,70,,,,,70,B
1,Marta Lewandowska,,F,,,Poland,Raw,Open,62.3,67.5,,,,,65,67.5,-70,67.5,,,,,67.5,B
2,Barbara Larnowska,,F,,,Poland,Raw,Open,64.4,67.5,,,,,50,55,-60,55,,,,,55,B
1,Magdalena Ciureja,,F,,,Poland,Raw,Open,86.5,90,,,,,67.5,72.5,75,75,,,,,75,B
1,Sonia Turzyniecka,,F,,,Poland,Raw,Paralympic,81,82.5,,,,,55,57.5,-61,57.5,,,,,57.5,B
1,Nadia Wieszczyk,,F,,,Poland,Raw,T13-15,53.6,56,,,,,55,,,55,,,,,55,B
1,Vanda Savanyú,,F,,,Hungary,Raw,T13-15,73.8,75,,,,,57.5,62.5,-65,62.5,,,,,62.5,B
1,Hanna Walkusz,,F,,,Poland,Raw,T16-17,55,56,,,,,-62.5,65,70,70,,,,,70,B
1,Petra Vaščáková,,F,,,Slovakia,Raw,T16-17,80.8,82.5,,,,,70,75,80,80,,,,,80,B
1,Klaudia Savanyu,,F,,,Hungary,Raw,T18-19,56.9,60,,,,,50,52.5,55,55,,,,,55,B
1,Erika Molnár,,F,,,Hungary,Single-ply,M40-49,62.7,67.5,,,,,80,85,90,90,,,,,90,B
1,Livia Tal Nemethne,,F,,,Hungary,Single-ply,M50-59,66.8,67.5,,,,,60,-65,,60,,,,,60,B
1,Tímea Kadenszki,,F,,,Hungary,Single-ply,Open,62.5,67.5,,,,,70,75,-82.5,75,,,,,75,B
1,Daniel Kaufmann,,M,,,Germany,Multi-ply,M40-49,90,90,,,,,270,285,-295,285,,,,,285,B
1,Mihails Rekaikins,,M,,,Latvia,Multi-ply,M40-49,97.4,100,,,,,210,-220,-220,210,,,,,210,B
1,Rafał Pałubicki,,M,,,Poland,Multi-ply,M40-49,108.5,110,,,,,300,315,-325,315,,,,,315,B
1,Ján Šiska,,M,,,Slovakia,Multi-ply,M40-49,124.3,125,,,,,270,282.5,290,290,,,,,290,B
1,Oskars Zvarts,,M,,,Ireland,Multi-ply,M40-49,139.9,140,,,,,260,270,-280,270,,,,,270,B
2,Gábor Salamon,,M,,,Hungary,Multi-ply,M40-49,151,140+,,,,,195,,,195,,,,,195,B
1,Attila Marosi,,M,,,Hungary,Multi-ply,M50-59,97.4,100,,,,,-250,250,260,260,,,,,260,B
1,Károly Németh,,M,,,Hungary,Multi-ply,M50-59,134.3,140,,,,,277.5,,,277.5,,,,,277.5,B
1,Jussi Kananen,,M,,,Finland,Multi-ply,MPF,146.2,,,,,,210,231,-260,231,,,,,231,B
1,Maksymilian Lubosik,,M,,,Poland,Multi-ply,Open,77.1,82.5,,,,,210,220,-235,220,,,,,220,B
2,Kalle Kananen,,M,,,Finland,Multi-ply,Open,78.8,82.5,,,,,105,110,-115,110,,,,,110,B
1,Andrzej Kołodziejczyk,,M,,,Poland,Multi-ply,Open,89.6,90,,,,,200,-260,-270,200,,,,,200,B
1,Rafał Pałubicki,,M,,,Poland,Multi-ply,Open,108.5,110,,,,,300,315,-325,315,,,,,315,B
2,Sedrak Matsakyan,,M,,,Armenia,Multi-ply,Open,101,110,,,,,180,,,180,,,,,180,B
1,Ján Šiska,,M,,,Slovakia,Multi-ply,Open,124.3,125,,,,,270,282.5,290,290,,,,,290,B
1,Jussi Kananen,,M,,,Finland,Multi-ply,Open,146.2,140+,,,,,210,231,-260,231,,,,,231,B
1,Bence Savanyu,,M,,,Hungary,Multi-ply,T16-17,73.6,75,,,,,80,90,95,95,,,,,95,B
1,Michal Warsilski,,M,,,Poland,Raw,J20-23,89,90,,,,,176,181,-184,181,,,,,181,B
DQ,Ferenc Mata,,M,,,Hungary,Raw,J20-23,89.1,90,,,,,-175,-182.5,-185,,,,,,,B
1,Dawid Sirol,,M,,,Poland,Raw,J20-23,99.6,100,,,,,225,230,235,235,,,,,235,B
1,Kacper Grabowski,,M,,,Poland,Raw,J20-23,101.4,110,,,,,140,-147.5,-150,140,,,,,140,B
1,Ramón Szeifert,,M,,,Slovakia,Raw,J20-23,138.2,140,,,,,165,177.5,187.5,187.5,,,,,187.5,B
1,Sebastian Białachowski,,M,,,Poland,Raw,M40-49,74.3,75,,,,,130,140,-145,140,,,,,140,B
1,Paweł Grab,,M,,,Poland,Raw,M40-49,80.8,82.5,,,,,-175,180,-185,180,,,,,180,B
2,Łukasz Kozłowski,,M,,,Poland,Raw,M40-49,79.5,82.5,,,,,160,167.5,172.5,172.5,,,,,172.5,B
1,Igors Marudins,,M,,,Latvia,Raw,M40-49,85.9,90,,,,,140,150,155,155,,,,,155,B
2,Jaroslaw Konowada,,M,,,Poland,Raw,M40-49,83,90,,,,,100,117.5,125,125,,,,,125,B
1,Rafał Makowski,,M,,,Poland,Raw,M40-49,96.3,100,,,,,200,212.5,217.5,217.5,,,,,217.5,B
2,László Németh,,M,,,Hungary,Raw,M40-49,97.1,100,,,,,190,195,200,200,,,,,200,B
3,Mihails Rekaikins,,M,,,Latvia,Raw,M40-49,97.4,100,,,,,162.5,170,-177.5,170,,,,,170,B
4,Piotr Perski,,M,,,Poland,Raw,M40-49,93.7,100,,,,,-160,160,-172.5,160,,,,,160,B
5,Arkadiusz Dembilski,,M,,,Poland,Raw,M40-49,95.3,100,,,,,145,150,155,155,,,,,155,B
1,Paweł Liszcz,,M,,,Poland,Raw,M40-49,109.2,110,,,,,245,250,,250,,,,,250,B
2,Tomasz Trzcilski,,M,,,Poland,Raw,M40-49,101.2,110,,,,,210,215,-220,215,,,,,215,B
3,Michal Švajka,,M,,,Slovakia,Raw,M40-49,103.5,110,,,,,140,150,160,160,,,,,160,B
1,Svajūnas Tamulevičius,,M,,,Lithuania,Raw,M40-49,122,125,,,,,242.5,-250,-250,242.5,,,,,242.5,B
2,Ondrej Hudák,,M,,,Slovakia,Raw,M40-49,119.9,125,,,,,185,-200,,185,,,,,185,B
1,Marek Makarewicz,,M,,,Poland,Raw,M40-49,125.5,140,,,,,200,-210,-210,200,,,,,200,B
2,Ireneusz Aletorowicz,,M,,,Poland,Raw,M40-49,138.9,140,,,,,185,-197.5,-197.5,185,,,,,185,B
3,Marcin Czaja,,M,,,Poland,Raw,M40-49,136.8,140,,,,,165,170,175,175,,,,,175,B
1,Norbert Hajas,,M,,,Hungary,Raw,M50-59,74.5,75,,,,,150,-155,155,155,,,,,155,B
1,Jerzy Czajka,,M,,,Poland,Raw,M50-59,88.8,90,,,,,182.5,187.5,-190,187.5,,,,,187.5,B
2,Jurii Giernko,,M,,,Poland,Raw,M50-59,90,90,,,,,127.5,130,135,135,,,,,135,B
1,Oļegs Illarionovs,,M,,,Latvia,Raw,M50-59,91.1,100,,,,,170,180,-190,180,,,,,180,B
1,Adam Eikman,,M,,,Poland,Raw,M50-59,123.8,125,,,,,185,192.5,197.5,197.5,,,,,197.5,B
2,Robert Pastuszka,,M,,,Poland,Raw,M50-59,119.6,125,,,,,187.5,192.5,-195,192.5,,,,,192.5,B
1,Károly Németh,,M,,,Hungary,Raw,M50-59,134.3,140,,,,,160,,,160,,,,,160,B
1,Mieczysłąw Maczka,,M,,,Germany,Raw,M60-69,82.3,82.5,,,,,115,,,115,,,,,115,B
1,Mirosław Urbaniak,,M,,,Poland,Raw,M60-69,88.8,90,,,,,145,155,160,160,,,,,160,B
1,Krzysztof Kłopocki,,M,,,Poland,Raw,M60-69,105.7,110,,,,,180,185,190,190,,,,,190,B
1,Zbigniew Koper,,M,,,Poland,Raw,M70+,71.5,75,,,,,90,95,101,101,,,,,101,B
1,Roman Wanot,,M,,,Poland,Raw,M70+,89.5,90,,,,,80,85,90,90,,,,,90,B
1,Paweł Liszcz,,M,,,Poland,Raw,MPF,109.2,,,,,,245,250,,250,,,,,250,B
2,Dawid Sirol,,M,,,Poland,Raw,MPF,99.6,,,,,,225,230,235,235,,,,,235,B
3,Radosław Smoliński,,M,,,Poland,Raw,MPF,122.3,,,,,,210,222.5,-225,222.5,,,,,222.5,B
4,Eduard Laczko,,M,,,Slovakia,Raw,MPF,105.5,,,,,,185,200,205,205,,,,,205,B
5,Tomáš Ryšavý,,M,,,Slovakia,Raw,MPF,85.7,,,,,,190,197.5,-202.5,197.5,,,,,197.5,B
6,Ondrej Hudák,,M,,,Slovakia,Raw,MPF,119.9,,,,,,185,-200,,185,,,,,185,B
7,Michal Warsilski,,M,,,Poland,Raw,MPF,89,,,,,,176,181,-184,181,,,,,181,B
8,Sebastian Białachowski,,M,,,Poland,Raw,MPF,74.3,,,,,,130,140,-145,140,,,,,140,B
DQ,Jakub Łabaj,,M,,,Poland,Raw,MPF,88.5,,,,,,-185,-185,,,,,,,,B
1,Benjamin Áder,,M,,,Hungary,Raw,Open,65.8,67.5,,,,,-140,140,-152.5,140,,,,,140,B
2,Adrian Chełmecki,,M,,,Poland,Raw,Open,60.5,67.5,,,,,115,120,122.5,122.5,,,,,122.5,B
1,Maciej Dobrzylski,,M,,,Poland,Raw,Open,74.1,75,,,,,130,135,140,140,,,,,140,B
2,Paweł Chojnacki,,M,,,Poland,Raw,Open,73.5,75,,,,,125,-132.5,137.5,137.5,,,,,137.5,B
1,Łukasz Szczerba,,M,,,Poland,Raw,Open,81.4,82.5,,,,,175,182.5,190,190,,,,,190,B
2,Paweł Grab,,M,,,Poland,Raw,Open,80.8,82.5,,,,,-175,180,-185,180,,,,,180,B
3,Łukasz Kozłowski,,M,,,Poland,Raw,Open,79.5,82.5,,,,,160,167.5,172.5,172.5,,,,,172.5,B
4,Dominik Šafránek,,M,,,Slovakia,Raw,Open,80,82.5,,,,,150,160,167.5,167.5,,,,,167.5,B
1,Vladimir Agasaryan,,M,,,Lithuania,Raw,Open,89.2,90,,,,,202.5,-205,205,205,,,,,205,B
2,Tomáš Ryšavý,,M,,,Slovakia,Raw,Open,85.7,90,,,,,190,197.5,-202.5,197.5,,,,,197.5,B
3,Krzysztof Mandziak,,M,,,Poland,Raw,Open,86.5,90,,,,,190,-195,195,195,,,,,195,B
4,Emil Kowalski,,M,,,Poland,Raw,Open,84.9,90,,,,,185,-190,-190,185,,,,,185,B
5,Wojciech Borsuk,,M,,,Poland,Raw,Open,87,90,,,,,170,175,-182.5,175,,,,,175,B
DQ,Jakub Łabaj,,M,,,Poland,Raw,Open,88.5,90,,,,,-185,-185,,,,,,,,B
DQ,Ireneusz Wocial,,M,,,Poland,Raw,Open,89,90,,,,,-165,-165,-165,,,,,,,B
1,Dawid Sirol,,M,,,Poland,Raw,Open,99.6,100,,,,,225,230,235,235,,,,,235,B
2,Ákos Oláh,,M,,,Hungary,Raw,Open,97.9,100,,,,,220,225,-227.5,225,,,,,225,B
3,Tadeusz Tessmer,,M,,,Poland,Raw,Open,99,100,,,,,205,-212.5,217.5,217.5,,,,,217.5,B
4,Łukasz Ślósarek,,M,,,Poland,Raw,Open,99.1,100,,,,,210,215,-217.5,215,,,,,215,B
5,Gergő Vakarcs,,M,,,Hungary,Raw,Open,99.3,100,,,,,200,-205,,200,,,,,200,B
6,Artur Boruszczak,,M,,,Poland,Raw,Open,95.5,100,,,,,167.5,177.5,-182.5,177.5,,,,,177.5,B
7,Mykola Kozak,,M,,,,Raw,Open,94.3,100,,,,,145,150,-155,150,,,,,150,B
8,Gabriel Kováč,,M,,,Slovakia,Raw,Open,97.3,100,,,,,140,150,-160,150,,,,,150,B
1,Ádám Moszkál,,M,,,Hungary,Raw,Open,109,110,,,,,255,-265,-265,255,,,,,255,B
2,Eduard Laczko,,M,,,Slovakia,Raw,Open,105.5,110,,,,,185,200,205,205,,,,,205,B
3,Sedrak Matsakyan,,M,,,Armenia,Raw,Open,101,110,,,,,165,180,-185,180,,,,,180,B
4,Krzysztof Antosik,,M,,,Poland,Raw,Open,107,110,,,,,170,180,-185,180,,,,,180,B
5,Mateusz Olczyk,,M,,,Poland,Raw,Open,105.7,110,,,,,175,-182.5,,175,,,,,175,B
6,Daniel Bryks,,M,,,Poland,Raw,Open,107,110,,,,,165,172.5,-177.5,172.5,,,,,172.5,B
1,Radosław Smoliński,,M,,,Poland,Raw,Open,122.3,125,,,,,210,222.5,-225,222.5,,,,,222.5,B
2,Artur Lisowski,,M,,,Poland,Raw,Open,119.2,125,,,,,195,205,-212.5,205,,,,,205,B
DQ,Tomislav Bitunjac,,M,,,Croatia,Raw,Open,116.5,125,,,,,-215,,,,,,,,,B
2,Branislav Háber,,M,,,Slovakia,Raw,Open,125.8,140,,,,,210,217.5,222.5,222.5,,,,,222.5,B
3,Marcin Czaja,,M,,,Poland,Raw,Open,136.8,140,,,,,165,170,175,175,,,,,175,B
1,Imrich Vörös,,M,,,Slovakia,Raw,Open,164.1,140+,,,,,220,232.5,-240,232.5,,,,,232.5,B
1,Maciej Domalski,,M,,,Poland,Raw,T13-15,60,60,,,,,85,90,-92.5,90,,,,,90,B
2,Alik Khachatryan,,M,,,Armenia,Raw,T13-15,59.1,60,,,,,80,85,-90,85,,,,,85,B
1,Mikolaj Lubosik,,M,,,Poland,Raw,T13-15,63.2,67.5,,,,,62.5,67.5,-70,67.5,,,,,67.5,B
1,Aleksander Poreda,,M,,,Poland,Raw,T13-15,69.7,75,,,,,-95,95,100,100,,,,,100,B
1,Gabriel Konowada,,M,,,Poland,Raw,T13-15,78.4,82.5,,,,,72.5,80,-85,80,,,,,80,B
1,Vahe Apitsaryan,,M,,,Armenia,Raw,T13-15,90,90,,,,,80,90,-100,90,,,,,90,B
1,Nikodem Skopek,,M,,,Poland,Raw,T16-17,58.1,60,,,,,85,90,92.5,92.5,,,,,92.5,B
2,Przemysław Grabiec,,M,,,Poland,Raw,T16-17,57.5,60,,,,,65,70,75,75,,,,,75,B
1,Gabriel Łukanowski,,M,,,Poland,Raw,T16-17,64,67.5,,,,,65,70,-75,70,,,,,70,B
DQ,Fabian Wolniak,,M,,,Poland,Raw,T16-17,89.7,90,,,,,-142.5,-142.5,-142.5,,,,,,,B
1,Jakub Lozecki,2006-08-27,M,,,Poland,Raw,T16-17,99.5,100,,,,,157.5,165,167.5,167.5,,,,,167.5,B
1,Kristóf Szalai,,M,,,Hungary,Raw,T16-17,140,140,,,,,142.5,160,-170,160,,,,,160,B
1,Libor Bodjan,,M,,,Slovakia,Raw,T18-19,59.5,60,,,,,90,95,97.5,97.5,,,,,97.5,B
2,Michał Karmel,,M,,,Poland,Raw,T18-19,58,60,,,,,65,70,-77.5,70,,,,,70,B
1,Jaroslaw Baran,,M,,,Poland,Raw,T18-19,63.9,67.5,,,,,115,117.5,-120,117.5,,,,,117.5,B
2,Sebastian Rosilski,,M,,,Poland,Raw,T18-19,65.6,67.5,,,,,100,107.5,-112.5,107.5,,,,,107.5,B
1,Jakub Dolilski,,M,,,Poland,Raw,T18-19,69.5,75,,,,,115,120,125,125,,,,,125,B
2,Bartosz Stempski,,M,,,Poland,Raw,T18-19,73,75,,,,,100,107.5,112.5,112.5,,,,,112.5,B
1,Jakub Kotomski,,M,,,Poland,Raw,T18-19,100,100,,,,,130,140,145,145,,,,,145,B
1,Dávid Kökényesy,,M,,,Hungary,Single-ply,J20-23,88.9,90,,,,,150,-180,-180,150,,,,,150,B
1,Róbert Csetényi,,M,,,Hungary,Single-ply,M40-49,91.5,100,,,,,180,-200,210,210,,,,,210,B
1,Artur Redestowicz,,M,,,Poland,Single-ply,M40-49,106.8,110,,,,,320,-340,340,340,,,,,340,B
1,Ondrej Hudák,,M,,,Slovakia,Single-ply,M40-49,119.9,125,,,,,320,340,-350,340,,,,,340,B
1,Gábor Salamon,,M,,,Hungary,Single-ply,M40-49,151,140+,,,,,320,-360,-360,320,,,,,320,B
2,Rafał Maszota,,M,,,Poland,Single-ply,M40-49,149.5,140+,,,,,240,-255,255,255,,,,,255,B
1,Attila Marosi,,M,,,Hungary,Single-ply,M50-59,97.4,100,,,,,200,250,,250,,,,,250,B
1,Csaba Molnár,,M,,,Hungary,Single-ply,M50-59,128.8,140,,,,,215,235,-250,235,,,,,235,B
1,Wojciech Kramer,,M,,,Poland,Single-ply,M60-69,114.3,125,,,,,230,240,-270,240,,,,,240,B
1,Jussi Kananen,,M,,,Finland,Single-ply,MPF,146.2,,,,,,230,255,-272.5,255,,,,,255,B
2,Rafał Maszota,,M,,,Poland,Single-ply,MPF,149.5,,,,,,240,-255,255,255,,,,,255,B
3,Wojciech Kramer,,M,,,Poland,Single-ply,MPF,114.3,,,,,,230,240,-270,240,,,,,240,B
1,Bogusław Ufir,,M,,,Poland,Single-ply,Open,69.5,75,,,,,225,250,260,260,,,,,260,B
1,Sebastian Świtoński,,M,,,Poland,Single-ply,Open,80.8,82.5,,,,,220,-265,-270,220,,,,,220,B
1,Dawid Urbanowicz,,M,,,Poland,Single-ply,Open,85,90,,,,,220,240,250,250,,,,,250,B
2,Ashot Antonyan,,M,,,Armenia,Single-ply,Open,89.9,90,,,,,140,150,-155,150,,,,,150,B
1,Rafał Żarnowski,,M,,,Poland,Single-ply,Open,98.1,100,,,,,240,260,280,280,,,,,280,B
2,Artur Niewczas,,M,,,Poland,Single-ply,Open,91.6,100,,,,,-220,220,250,250,,,,,250,B
3,Patryk Citko,,M,,,Poland,Single-ply,Open,97.7,100,,,,,210,-250,-250,210,,,,,210,B
1,Jussi Kananen,,M,,,Finland,Single-ply,Open,146.2,140+,,,,,230,255,-272.5,255,,,,,255,B
2,Rafał Maszota,,M,,,Poland,Single-ply,Open,149.5,140+,,,,,240,-255,255,255,,,,,255,B
1,Noel Baross,,M,,,Hungary,Single-ply,T13-15,71.4,75,,,,,45,50,55,55,,,,,55,B
1,Adam Duda,,M,,,Poland,Single-ply,T16-17,82,82.5,,,,,145,155,-162.5,155,,,,,155,B
1,Kacper Kosiński,,M,,,Poland,Single-ply,T16-17,96,100,,,,,140,-155,155,155,,,,,155,B
1,Ferenc Busznyák,,M,,,Hungary,Single-ply,T18-19,109.2,110,,,,,160,180,-195,180,,,,,180,B
1,Zuzanna Buchowiecka,,F,,,Poland,Raw,J20-23,47.3,52,,,,,,,,,130,-146,-146,130,130,D
2,Kamila Gawkowska,,F,,,Poland,Raw,J20-23,48.6,52,,,,,,,,,102.5,110,117.5,117.5,117.5,D
1,Elżbieta Kardaś,,F,,,Poland,Raw,J20-23,58.5,60,,,,,,,,,120,130,-140,130,130,D
1,Krystyna Puzio,,F,,,Poland,Raw,M50-59,102,90+,,,,,,,,,150,160,171,171,171,D
1,Zuzanna Buchowiecka,,F,,,Poland,Raw,Open,47.3,52,,,,,,,,,130,-146,-146,130,130,D
1,Paulina Pracownik,,F,,,Poland,Raw,Open,59,60,,,,,,,,,125,-132.5,-135,125,125,D
1,Magdaléna Kačurová,,F,,,Slovakia,Raw,Open,65.3,67.5,,,,,,,,,125,135,140,140,140,D
1,Alla Mirzoyan,,F,,,Armenia,Raw,Open,72.5,75,,,,,,,,,150,155,-160,155,155,D
1,Monika Wolniak,,F,,,Poland,Raw,Open,79,82.5,,,,,,,,,100,110,-115,110,110,D
DQ,Miroslava Hrašková,,F,,,Slovakia,Raw,Open,77.5,82.5,,,,,,,,,-150,-150,-150,,,D
1,Magdalena Ciureja,,F,,,Poland,Raw,Open,86.5,90,,,,,,,,,120,127.5,132.5,132.5,132.5,D
1,Gabriela Hatlas,,F,,,Poland,Raw,T13-15,44.8,52,,,,,,,,,80,87.5,92.5,92.5,92.5,D
1,Lena Ignatowska,,F,,,Poland,Raw,T16-17,64.7,67.5,,,,,,,,,115,122.5,-127.5,122.5,122.5,D
1,Wiktoria Wldolowska,,F,,,Poland,Raw,T16-17,73.3,75,,,,,,,,,95,-102.5,-105,95,95,D
1,Petra Vaščáková,,F,,,Slovakia,Raw,T16-17,80.8,82.5,,,,,,,,,-165,165,-177,165,165,D
2,Joanna Mosor,,F,,,Poland,Raw,T16-17,80.8,82.5,,,,,,,,,-125,130,-140,130,130,D
1,Filip Kijewski,,M,,,Poland,Multi-ply,J20-23,97.9,100,,,,,,,,,275,290,-301,290,290,D
1,Michal Buranský,,M,,,Slovakia,Multi-ply,M40-49,81.8,82.5,,,,,,,,,240,-252.5,-252.5,240,240,D
1,Ján Cuprišin,,M,,,Slovakia,Multi-ply,M40-49,87.2,90,,,,,,,,,240,260,-270,260,260,D
1,Grzegorz Drewniany,,M,,,Poland,Multi-ply,M40-49,100.4,110,,,,,,,,,255,275,-293,275,275,D
2,Ľubomír Trstenský,,M,,,Slovakia,Multi-ply,M40-49,105.7,110,,,,,,,,,210,-220,,210,210,D
1,Robert Neml,,M,,,Poland,Multi-ply,M50-59,115.2,125,,,,,,,,,260,,,260,260,D
1,Michal Červinka,,M,,,Slovakia,Multi-ply,M60-69,92.7,100,,,,,,,,,185,-195,-195,185,185,D
1,Stefan Sochalski,,M,,,Poland,Multi-ply,M70+,83,90,,,,,,,,,175,195,,195,195,D
1,Ján Cuprišin,,M,,,Slovakia,Multi-ply,MPF,87.2,,,,,,,,,,240,260,-270,260,260,D
2,Stefan Sochalski,,M,,,Poland,Multi-ply,MPF,83,,,,,,,,,,175,195,,195,195,D
1,Ľubomír Samseli,,M,,,Slovakia,Multi-ply,Open,81.2,82.5,,,,,,,,,230,-245,-245,230,230,D
1,Suren Khachatryan,,M,,,Armenia,Multi-ply,Open,83.5,90,,,,,,,,,70,,,70,70,D
1,Grzegorz Drewniany,,M,,,Poland,Multi-ply,Open,100.4,110,,,,,,,,,255,275,-293,275,275,D
1,Artur Vardaryan,,M,,,Armenia,Multi-ply,T16-17,71.5,75,,,,,,,,,190,,,190,190,D
1,Artak Avetisyan,,M,,,Armenia,Multi-ply,T18-19,89.7,90,,,,,,,,,160,-180,-180,160,160,D
1,Maciej Trzonkowski,,M,,,Poland,Raw,J20-23,89.5,90,,,,,,,,,235,250,-260,250,250,D
1,Igor Tomson,,M,,,Estonia,Raw,M40-49,81.9,82.5,,,,,,,,,245,,,245,245,D
1,Marcin Kacnerski,,M,,,Poland,Raw,M40-49,99.2,100,,,,,,,,,260,-282,-282,260,260,D
1,Mariusz Bartołowicz,,M,,,Poland,Raw,M40-49,107.8,110,,,,,,,,,270,285,-292.5,285,285,D
2,Adam Łukomski,,M,,,Poland,Raw,M40-49,100.5,110,,,,,,,,,-230,230,-240,230,230,D
3,Michal Švajka,,M,,,Slovakia,Raw,M40-49,105.1,110,,,,,,,,,-205,-215,215,215,215,D
4,Marcin Glbusiak,,M,,,Poland,Raw,M40-49,107.1,110,,,,,,,,,190,200,-205,200,200,D
1,Jozef Tomaszewski,,M,,,Poland,Raw,M40-49,116.9,125,,,,,,,,,260,275,285,285,285,D
1,Paweł Pracownik,,M,,,Poland,Raw,M50-59,73.1,75,,,,,,,,,275,285,291,291,291,D
DQ,Marek Jaroniec,,M,,,Poland,Raw,M50-59,76.5,82.5,,,,,,,,,-220,-220,-220,,,D
1,Davit Grigoryan,,M,,,Armenia,Raw,M50-59,83.4,90,,,,,,,,,135,-150,150,150,150,D
1,Mariusz Rufkiewicz,,M,,,Poland,Raw,M50-59,101,110,,,,,,,,,245,,,245,245,D
1,Robert Neml,,M,,,Poland,Raw,M50-59,115.2,125,,,,,,,,,250,260,,260,260,D
1,Sejfo Šehović,,M,,,Bosnia and Herzegovina,Raw,M60-69,80,82.5,,,,,,,,,-252.5,270,280,280,280,D
2,Mieczysłąw Maczka,,M,,,Germany,Raw,M60-69,82.3,82.5,,,,,,,,,168,,,168,168,D
1,Ireneusz Czupryn,,M,,,Poland,Raw,M60-69,84.3,90,,,,,,,,,170,180,192.5,192.5,192.5,D
1,Tibor Gejdoš,,M,,,Slovakia,Raw,M60-69,104.5,110,,,,,,,,,225,250,,250,250,D
1,Stefan Sochalski,,M,,,Poland,Raw,M70+,83,90,,,,,,,,,-165,165,,165,165,D
2,Mariusz Łydziński,,M,,,Poland,Raw,MPF,74.3,,,,,,,,,,220,235,-246,235,235,D
1,Mariusz Bartołowicz,,M,,,Poland,Raw,MPF,107.8,,,,,,,,,,270,285,-292.5,285,285,D
3,Adam Łukomski,,M,,,Poland,Raw,MPF,100.5,,,,,,,,,,-230,230,-240,230,230,D
5,Stefan Sochalski,,M,,,Poland,Raw,MPF,83,,,,,,,,,,-165,165,,165,165,D
4,Konrad Czupryn,,M,,,Poland,Raw,MPF,98.7,,,,,,,,,,160,180,-202.5,180,180,D
1,Viktor Šafránek,,M,,,Slovakia,Raw,Open,59.5,60,,,,,,,,,200,-220,-220,200,200,D
2,Seyran Abrahamyan,,M,,,Armenia,Raw,Open,56,60,,,,,,,,,165,-170,-170,165,165,D
1,Paweł Pracownik,,M,,,Poland,Raw,Open,73.1,75,,,,,,,,,275,285,291,291,291,D
2,Mariusz Łydziński,,M,,,Poland,Raw,Open,74.3,75,,,,,,,,,220,235,-246,235,235,D
3,Maciej Dobrzylski,,M,,,Poland,Raw,Open,74.1,75,,,,,,,,,205,210,217.5,217.5,217.5,D
1,Dominik Šafránek,,M,,,Slovakia,Raw,Open,80,82.5,,,,,,,,,290,300,307.5,307.5,307.5,D
1,Kacper Cecko,,M,,,Poland,Raw,Open,88.4,90,,,,,,,,,220,240,-250,240,240,D
1,András Vass,,M,,,Slovakia,Raw,Open,92.1,100,,,,,,,,,260,270,-280,270,270,D
2,Gabriel Kováč,,M,,,Slovakia,Raw,Open,98,100,,,,,,,,,200,210,215,215,215,D
3,Konrad Czupryn,,M,,,Poland,Raw,Open,98.7,100,,,,,,,,,160,180,-202.5,180,180,D
1,Lazar Belošević,,M,,,Serbia,Raw,Open,107.5,110,,,,,,,,,330,-360,-385,330,330,D
2,Adrian Masny,,M,,,Poland,Raw,Open,110,110,,,,,,,,,292.5,,,292.5,292.5,D
3,Krzysztof Antosik,,M,,,Poland,Raw,Open,107,110,,,,,,,,,270,290,-300,290,290,D
4,Mariusz Bartołowicz,,M,,,Poland,Raw,Open,107.8,110,,,,,,,,,270,285,-292.5,285,285,D
5,Marcin Borkowski,,M,,,Poland,Raw,Open,106,110,,,,,,,,,240,245,252.5,252.5,252.5,D
1,Karol Frąckowiak,,M,,,Poland,Raw,Open,120.3,125,,,,,,,,,280,,,280,280,D
1,Alik Khachatryan,,M,,,Armenia,Raw,T13-15,59.1,60,,,,,,,,,125,140,150,150,150,D
2,Artyom Galstyan,,M,,,Armenia,Raw,T13-15,44,60,,,,,,,,,100,110,115,115,115,D
3,Szymon Krok,,M,,,Poland,Raw,T13-15,53.2,60,,,,,,,,,95,105,110,110,110,D
1,Kacper Stanek,,M,,,Poland,Raw,T13-15,64.9,67.5,,,,,,,,,120,137.5,145,145,145,D
1,Jan Haberny,,M,,,Poland,Raw,T13-15,73.1,75,,,,,,,,,105,115,125,125,125,D
1,Tomasz Palarz,,M,,,Poland,Raw,T13-15,80,82.5,,,,,,,,,95,110,120,120,120,D
1,Piotr Szymalski,,M,,,Poland,Raw,T16-17,74.3,75,,,,,,,,,185,192.5,202.5,202.5,202.5,D
1,Libor Bodjan,,M,,,Slovakia,Raw,T18-19,59.5,60,,,,,,,,,160,170,-181,170,170,D
1,Jakub Bolkowski,,M,,,Poland,Raw,T18-19,65.5,67.5,,,,,,,,,243,,,243,243,D
1,Tomasz Zembrowski,,M,,,Poland,Raw,T18-19,69.2,75,,,,,,,,,-205,217.5,-222.5,217.5,217.5,D
1,Jakub Jarolczyk,,M,,,Poland,Raw,T18-19,88.4,90,,,,,,,,,240,250,-252.5,250,250,D
1,Bartlomiej Petk,,M,,,Poland,Raw,T18-19,96.7,100,,,,,,,,,200,-210,-215,200,200,D
1,Viktor Šafránek,,M,,,Slovakia,Straps,Open,59.5,60,,,,,,,,,200,215,-230,215,215,D
1,Kamil Najdyk,,M,,,Poland,Straps,Open,64.6,67.5,,,,,,,,,-175,175,-200,175,175,D
1,Dominik Šafránek,,M,,,Slovakia,Straps,Open,80,82.5,,,,,,,,,290,300,-310,300,300,D
2,Marek Jaroniec,,M,,,Poland,Straps,Open,76.5,82.5,,,,,,,,,250,270,285,285,285,D
1,Marcin Kacnerski,,M,,,Poland,Straps,Open,99.2,100,,,,,,,,,265,270,282.5,282.5,282.5,D
1,Erik Knöfler,,M,,,Germany,Straps,Open,102.5,110,,,,,,,,,315,330,-340,330,330,D
1,Wojtek Czarnecki,,M,,,Poland,Straps,Open,113.6,125,,,,,,,,,230,245,-250,245,245,D
1,Ireneusz Aletorowicz,,M,,,Poland,Straps,Open,138.9,140,,,,,,,,,245,255,-265,255,255,D
