Division,WeightClassKg,Place,Name,Team,BodyweightKg,Best3SquatKg,Best3BenchKg,Best3DeadliftKg,TotalKg,Equipment,Event,Sex,BirthDate
Boys,51.71,1,Isaiah Reyes,Plainview,51.44,145.15,86.18,163.29,394.63,Single-ply,SBD,M,
Boys,51.71,2,Robert Noriega,Kress,50.98,131.54,83.91,156.49,371.95,Single-ply,SBD,M,
Boys,51.71,3,Michael Salazar,Sundown,51.71,136.08,70.31,158.76,365.14,Single-ply,SBD,M,
Boys,51.71,4,Isac Obregon,Lubbock,51.07,102.06,97.52,131.54,331.12,Single-ply,SBD,M,
Boys,51.71,5,Nathan Rendon,Levelland,50.8,108.86,74.84,136.08,319.78,Single-ply,SBD,M,
Boys,51.71,6,Izajah Aguirre,Lubbock,50.35,111.13,70.31,124.74,306.17,Single-ply,SBD,M,
Boys,51.71,7,Jose Zamora,Dumas,51.71,117.93,74.84,108.86,301.64,Single-ply,SBD,M,
Boys,51.71,8,Xavier Ellis,Kress,46.18,102.06,56.7,136.08,294.84,Single-ply,SBD,M,
Boys,51.71,9,Elias Gonzalez,Lubbock,50.8,106.59,68.04,113.4,288.03,Single-ply,SBD,M,
Boys,51.71,10,Liam Hawthorne,Lubbock,50.44,97.52,56.7,115.67,269.89,Single-ply,SBD,M,
Boys,51.71,11,Davian Castilleja,Kress,51.07,92.99,58.97,117.93,269.89,Single-ply,SBD,M,
Boys,51.71,12,Christian Guzman,Lamesa,50.53,81.65,43.09,102.06,226.8,Single-ply,SBD,M,
Boys,55.79,1,Jeremey Rodriguez,Tulia,55.79,161.03,83.91,172.37,417.3,Single-ply,SBD,M,
Boys,55.79,2,Rj Lopez,Levelland,54.43,145.15,88.45,154.22,387.82,Single-ply,SBD,M,
Boys,55.79,3,Greg Fenalon,Plainview,53.16,124.74,72.57,131.54,328.85,Single-ply,SBD,M,
Boys,55.79,4,Aiden Trevino,Lamesa,54.16,122.47,58.97,140.61,322.05,Single-ply,SBD,M,
Boys,55.79,5,Zaden Carrillo,Levelland,55.79,104.33,65.77,127.01,297.1,Single-ply,SBD,M,
Boys,55.79,6,Alexandro Sanchez,Lubbock,53.8,106.59,68.04,113.4,288.03,Single-ply,SBD,M,
Boys,55.79,7,Riley Rodriguez,Whiteface,54.7,90.72,61.23,127.01,278.96,Single-ply,SBD,M,
Boys,55.79,8,Chris Olguin,Whiteface,54.34,97.52,58.97,104.33,260.82,Single-ply,SBD,M,
Boys,55.79,9,Gavin Baker,Whiteface,53.25,97.52,52.16,90.72,240.4,Single-ply,SBD,M,
Boys,55.79,DQ,Ethaniel Trevino,Tulia,55.7,,,,,Single-ply,SBD,M,
Boys,59.87,1,Juan Gomez,Lubbock,57.42,170.1,106.59,192.78,469.47,Single-ply,SBD,M,
Boys,59.87,2,Eric Cruz,Lubbock Roosevelt,58.6,176.9,104.33,172.37,453.59,Single-ply,SBD,M,
Boys,59.87,3,Ethan Martinez,Wolfforth Frenship,58.51,167.83,104.33,172.37,444.52,Single-ply,SBD,M,
Boys,59.87,4,Caston Miller,Odessa Permian,58.97,147.42,97.52,183.7,428.64,Single-ply,SBD,M,
Boys,59.87,5,Alejandro Garcia,Plainview,59.6,156.49,86.18,183.7,426.38,Single-ply,SBD,M,
Boys,59.87,6,Riley Kowalski,Dumas,58.42,136.08,70.31,124.74,331.12,Single-ply,SBD,M,
Boys,59.87,7,Jasiah Castellon,Tulia,59.78,111.13,81.65,138.35,331.12,Single-ply,SBD,M,
Boys,59.87,8,Lizandro Rocha,Dimmitt,58.51,117.93,72.57,138.35,328.85,Single-ply,SBD,M,
Boys,59.87,9,Xayvion Gonzalez,Dimmitt,58.51,115.67,74.84,124.74,315.25,Single-ply,SBD,M,
Boys,59.87,10,Jose Franco,Denver City,59.69,108.86,77.11,124.74,310.71,Single-ply,SBD,M,
Boys,59.87,11,Diego Cedillo,Kress,58.15,108.86,72.57,122.47,303.91,Single-ply,SBD,M,
Boys,59.87,12,Shiv Bhakta,Lamesa,58.79,99.79,54.43,147.42,301.64,Single-ply,SBD,M,
Boys,67.13,1,Angel Camero,Levelland,66.86,176.9,99.79,206.38,483.08,Single-ply,SBD,M,
Boys,67.13,2,Vincent Yarbrough,Tulia,64.86,174.63,104.33,199.58,478.54,Single-ply,SBD,M,
Boys,67.13,3,Gabriel Reyes,Dimmitt,63.96,156.49,104.33,199.58,460.4,Single-ply,SBD,M,
Boys,67.13,4,Carlos Parra,Dumas,66.86,174.63,99.79,151.95,426.38,Single-ply,SBD,M,
Boys,67.13,5,Michael Garza #7,Wolfforth Frenship,65.32,129.27,102.06,176.9,408.23,Single-ply,SBD,M,
Boys,67.13,6,Skyler Monroe,Tulia,66.77,145.15,90.72,170.1,405.97,Single-ply,SBD,M,
Boys,67.13,7,Jorge Bo Hernandez,Dimmitt,63.14,142.88,92.99,161.03,396.89,Single-ply,SBD,M,
Boys,67.13,8,Izaic Gonzales,Lamesa,66.5,149.69,86.18,142.88,378.75,Single-ply,SBD,M,
Boys,67.13,9,Sedric Mirelez,Dimmitt,65.68,127.01,79.38,170.1,376.48,Single-ply,SBD,M,
Boys,67.13,10,Diego Vidaurre,Lamesa,66.5,145.15,72.57,158.76,376.48,Single-ply,SBD,M,
Boys,67.13,11,Christian Zapata,Kress,63.59,136.08,77.11,161.03,374.21,Single-ply,SBD,M,
Boys,67.13,12,Logan Bartlett,Lubbock Roosevelt,66.5,124.74,86.18,151.95,362.87,Single-ply,SBD,M,
Boys,67.13,13,Ivan Garcia #5,Tulia,66.22,124.74,77.11,156.49,358.34,Single-ply,SBD,M,
Boys,67.13,14,Devion Ellis,Kress,62.41,124.74,58.97,154.22,337.93,Single-ply,SBD,M,
Boys,67.13,15,Kennon Walker,Dumas,63.59,124.74,70.31,142.88,337.93,Single-ply,SBD,M,
Boys,67.13,16,Marcus Aguilar,Seminole,64.14,131.54,61.23,136.08,328.85,Single-ply,SBD,M,
Boys,67.13,17,Davonte Baker,Kress,66.04,120.2,65.77,131.54,317.51,Single-ply,SBD,M,
Boys,67.13,18,Brayden Gonzalez,Denver City,67.13,113.4,68.04,129.27,310.71,Single-ply,SBD,M,
Boys,67.13,19,Jaxon Heflin,Whiteface,66.77,111.13,72.57,111.13,294.84,Single-ply,SBD,M,
Boys,67.13,DQ,Tye Bice,Tulia,67.13,113.4,72.57,136.08,,Single-ply,SBD,M,
Boys,67.13,DQ,Juan Paloma,Lubbock,66.5,176.9,,,,Single-ply,SBD,M,
Boys,67.13,DQ,Alec Martinez,Denver City,64.23,,,,,Single-ply,SBD,M,
Boys,67.13,DQ,David Hagood,Lubbock Roosevelt,65.14,,,,,Single-ply,SBD,M,
Boys,74.84,1,Izik Godino,Plainview,69.04,204.12,113.4,185.97,503.49,Single-ply,SBD,M,
Boys,74.84,2,Sabian Martinez,Dimmitt,72.39,183.7,120.2,179.17,483.08,Single-ply,SBD,M,
Boys,74.84,3,Jeremiah Talamantes,Seminole,73.39,190.51,102.06,183.7,476.27,Single-ply,SBD,M,
Boys,74.84,4,Devon Campbell,Whiteface,74.48,181.44,102.06,181.44,464.93,Single-ply,SBD,M,
Boys,74.84,5,Justin Aldava,Dumas,74.39,174.63,106.59,181.44,462.66,Single-ply,SBD,M,
Boys,74.84,6,Jaden Noriega,Kress,73.57,172.37,117.93,170.1,460.4,Single-ply,SBD,M,
Boys,74.84,7,Michael Guzman,Kress,73.39,156.49,108.86,181.44,446.79,Single-ply,SBD,M,
Boys,74.84,8,Luis Chavez,Odessa Permian,70.13,156.49,113.4,172.37,442.25,Single-ply,SBD,M,
Boys,74.84,9,Dakota Davis,Odessa Permian,70.22,154.22,113.4,174.63,442.25,Single-ply,SBD,M,
Boys,74.84,10,Zachary Collins,Plainview,71.12,165.56,92.99,163.29,421.84,Single-ply,SBD,M,
Boys,74.84,11,Derrick Valdespino,Denver City,70.13,176.9,106.59,136.08,419.57,Single-ply,SBD,M,
Boys,74.84,12,Jacob Casarez,Lamesa,67.4,167.83,83.91,165.56,417.3,Single-ply,SBD,M,
Boys,74.84,13,Conner Fry,Dumas,68.58,163.29,86.18,142.88,392.36,Single-ply,SBD,M,
Boys,74.84,14,Jonah Escalante,Denver City,69.94,147.42,90.72,151.95,390.09,Single-ply,SBD,M,
Boys,74.84,15,Elijah Munoz,Levelland,70.31,133.81,88.45,147.42,369.68,Single-ply,SBD,M,
Boys,74.84,16,Matthew Landin,Wolfforth Frenship,70.94,138.35,70.31,161.03,369.68,Single-ply,SBD,M,
Boys,74.84,17,Tyler Campbell,Whiteface,72.48,147.42,86.18,136.08,369.68,Single-ply,SBD,M,
Boys,74.84,18,Tyler Campbell,Odessa Permian,72.12,133.81,90.72,133.81,358.34,Single-ply,SBD,M,
Boys,74.84,19,Noah Rendon,Whiteface,67.95,122.47,90.72,140.61,353.8,Single-ply,SBD,M,
Boys,74.84,20,Ethan Kauffman,Whiteface,72.76,113.4,81.65,127.01,322.05,Single-ply,SBD,M,
Boys,74.84,DQ,Jackson Gibbs,Levelland,67.59,117.93,74.84,136.08,,Single-ply,SBD,M,
Boys,74.84,DQ,Christian Smith,Levelland,73.94,156.49,,,,Single-ply,SBD,M,
Boys,74.84,DQ,Zane Holland,Dumas,67.49,188.24,,,,Single-ply,SBD,M,
Boys,82.1,1,Alex Trevino,Lubbock Roosevelt,80.83,263.08,124.74,254.01,641.83,Single-ply,SBD,M,
Boys,82.1,2,Omar Rodriguez,Hart,80.83,219.99,147.42,195.04,562.45,Single-ply,SBD,M,
Boys,82.1,3,Luke Brooker,Whiteface,81.19,188.24,129.27,195.04,512.56,Single-ply,SBD,M,
Boys,82.1,4,Caleb McDowell,Tulia,80.74,190.51,102.06,213.19,505.76,Single-ply,SBD,M,
Boys,82.1,5,Ivan Trinidad,Denver City,81.47,174.63,129.27,192.78,496.68,Single-ply,SBD,M,
Boys,82.1,6,Luke Pompa,Levelland,80.74,185.97,117.93,183.7,487.61,Single-ply,SBD,M,
Boys,82.1,7,Ethan Morton,Lubbock,80.65,181.44,120.2,183.7,485.34,Single-ply,SBD,M,
Boys,82.1,8,Andrew Colon,Tulia,78.93,158.76,95.25,204.12,458.13,Single-ply,SBD,M,
Boys,82.1,9,Josh Ford,Lubbock,82.1,158.76,120.2,158.76,437.72,Single-ply,SBD,M,
Boys,82.1,10,Jordan Casas,Dimmitt,75.66,158.76,88.45,183.7,430.91,Single-ply,SBD,M,
Boys,82.1,11,Zavian Quiroga,Dumas,80.56,158.76,88.45,179.17,426.38,Single-ply,SBD,M,
Boys,82.1,12,Eszequiel Vidal,Dimmitt,81.74,138.35,92.99,163.29,394.63,Single-ply,SBD,M,
Boys,82.1,13,William VanZee,Dimmitt,75.48,142.88,92.99,151.95,387.82,Single-ply,SBD,M,
Boys,82.1,14,Angel Catalan,Dimmitt,81.28,136.08,97.52,151.95,385.55,Single-ply,SBD,M,
Boys,82.1,15,Zach Long,Wolfforth Frenship,81.19,138.35,92.99,151.95,383.29,Single-ply,SBD,M,
Boys,82.1,16,Jack Corbin,Wolfforth Frenship,79.83,131.54,79.38,142.88,353.8,Single-ply,SBD,M,
Boys,82.1,17,Jeremy Soliz,Whiteface,79.65,120.2,70.31,136.08,326.59,Single-ply,SBD,M,
Boys,82.1,DQ,Joe Ramirez,Levelland,80.29,111.13,79.38,158.76,,Single-ply,SBD,M,
Boys,82.1,DQ,Damion Reyes,Levelland,76.66,120.2,77.11,136.08,,Single-ply,SBD,M,
Boys,82.1,DQ,Damian Arriaga,Dimmitt,78.74,,,,,Single-ply,SBD,M,
Boys,82.1,DQ,Austin Vanriper,Seminole,75.57,145.15,95.25,,,Single-ply,SBD,M,
Boys,89.81,1,Dalton Leven,Dumas,88.81,274.42,151.95,229.06,655.44,Single-ply,SBD,M,
Boys,89.81,2,Nate Gensler,Lubbock Roosevelt,84.01,238.14,154.22,254.01,646.37,Single-ply,SBD,M,
Boys,89.81,3,Jonathan Gonzalez,Plainview,82.92,249.48,158.76,226.8,635.03,Single-ply,SBD,M,
Boys,89.81,4,Andrew Helguera,Odessa Permian,88.63,190.51,136.08,195.04,521.63,Single-ply,SBD,M,
Boys,89.81,5,Omar Ramos,Odessa Permian,86.55,188.24,131.54,195.04,514.83,Single-ply,SBD,M,
Boys,89.81,6,Jose Castillo #12,Kress,89.81,190.51,120.2,181.44,492.15,Single-ply,SBD,M,
Boys,89.81,7,Gerardo Rivera,Plainview,88.72,190.51,111.13,181.44,483.08,Single-ply,SBD,M,
Boys,89.81,8,Abraham Loeza,Dimmitt,84.73,158.76,129.27,183.7,471.74,Single-ply,SBD,M,
Boys,89.81,9,Josh Garcia #8,Plainview,84.19,190.51,117.93,156.49,464.93,Single-ply,SBD,M,
Boys,89.81,10,Reese Roberts #2,Wolfforth Frenship,86.64,174.63,115.67,165.56,455.86,Single-ply,SBD,M,
Boys,89.81,11,Preston Berkman,Dumas,88.54,167.83,97.52,165.56,430.91,Single-ply,SBD,M,
Boys,89.81,12,Harrison Sheppler,Lubbock,82.83,163.29,104.33,161.03,428.64,Single-ply,SBD,M,
Boys,89.81,13,Daniel Vasquez,Denver City,87.18,156.49,90.72,149.69,396.89,Single-ply,SBD,M,
Boys,89.81,14,Sergio Ramos,Dimmitt,88.45,140.61,92.99,156.49,390.09,Single-ply,SBD,M,
Boys,89.81,15,Donovan Almager,Whiteface,87.63,113.4,77.11,115.67,306.17,Single-ply,SBD,M,
Boys,89.81,DQ,Mason Keenan,Dumas,82.74,181.44,124.74,,,Single-ply,SBD,M,
Boys,89.81,DQ,Rylee Davidson #2,Whiteface,89.45,,,,,Single-ply,SBD,M,
Boys,89.81,DQ,Evan Reid,Wolfforth Frenship,89.81,,,,,Single-ply,SBD,M,
Boys,89.81,DQ,Jacob Bankston,Wolfforth Frenship,89.81,,,,,Single-ply,SBD,M,
Boys,99.79,1,Gerardo Gonzalez,Dimmitt,94.62,219.99,115.67,263.08,598.74,Single-ply,SBD,M,
Boys,99.79,2,Landin Noey,Lubbock Roosevelt,98.34,192.78,122.47,204.12,519.36,Single-ply,SBD,M,
Boys,99.79,3,Nathan Carrillo,Plainview,97.25,204.12,113.4,181.44,498.95,Single-ply,SBD,M,
Boys,99.79,4,Zed Mendez,Whiteface,99.79,204.12,124.74,167.83,496.68,Single-ply,SBD,M,
Boys,99.79,5,Brighton Scoggins,Whiteface,99.43,188.24,102.06,190.51,480.81,Single-ply,SBD,M,
Boys,99.79,6,Aiden Herrera,Levelland,95.71,181.44,127.01,170.1,478.54,Single-ply,SBD,M,
Boys,99.79,7,Matthew Lopez #4,Dimmitt,95.89,174.63,120.2,181.44,476.27,Single-ply,SBD,M,
Boys,99.79,8,Joe Pena,Levelland,94.35,183.7,115.67,174.63,474,Single-ply,SBD,M,
Boys,99.79,9,Marquez Garcia,Denver City,96.25,192.78,120.2,158.76,471.74,Single-ply,SBD,M,
Boys,99.79,10,Damian Casteneda,Whiteface,98.79,172.37,106.59,192.78,471.74,Single-ply,SBD,M,
Boys,99.79,11,Taytum Lafever,Dumas,90.08,147.42,90.72,163.29,401.43,Single-ply,SBD,M,
Boys,99.79,12,Colten Watts,Wolfforth Frenship,92.99,142.88,70.31,142.88,356.07,Single-ply,SBD,M,
Boys,99.79,13,Eric Alvarez,Whiteface,98.79,120.2,68.04,133.81,322.05,Single-ply,SBD,M,
Boys,99.79,DQ,Dylan Hernandez,Levelland,99.79,181.44,102.06,170.1,,Single-ply,SBD,M,
Boys,99.79,DQ,Xavier Espinoza,Levelland,98.88,183.7,104.33,181.44,,Single-ply,SBD,M,
Boys,109.77,1,Alexander Wootton,Seminole,101.97,285.76,154.22,278.96,718.94,Single-ply,SBD,M,
Boys,109.77,2,Martin Hernandez #7,Dimmitt,106.96,204.12,122.47,240.4,566.99,Single-ply,SBD,M,
Boys,109.77,3,Brayden Cortinaz,Wolfforth Frenship,100.7,204.12,95.25,208.65,508.02,Single-ply,SBD,M,
Boys,109.77,4,Francisco Sanchez,Odessa Permian,109.32,185.97,113.4,183.7,483.08,Single-ply,SBD,M,
Boys,109.77,5,Jesus Lopez,Dimmitt,102.78,183.7,90.72,188.24,462.66,Single-ply,SBD,M,
Boys,109.77,6,Julian Madrid,Denver City,107.68,174.63,102.06,183.7,460.4,Single-ply,SBD,M,
Boys,109.77,7,Angel Orona,Denver City,102.15,179.17,102.06,170.1,451.32,Single-ply,SBD,M,
Boys,109.77,8,Noel Madrid,Denver City,104.33,165.56,102.06,165.56,433.18,Single-ply,SBD,M,
Boys,109.77,9,Jake Sumrow,Seminole,106.96,145.15,97.52,181.44,424.11,Single-ply,SBD,M,
Boys,109.77,10,Michael Sanchez #4,Whiteface,106.41,161.03,102.06,154.22,417.3,Single-ply,SBD,M,
Boys,109.77,11,Chase Pickering,Levelland,108.41,154.22,90.72,145.15,390.09,Single-ply,SBD,M,
Boys,109.77,12,Ryan Sinclair #2,Seminole,104.33,151.95,77.11,154.22,383.29,Single-ply,SBD,M,
Boys,109.77,13,Kaden Dobson,Whiteface,102.78,156.49,86.18,138.35,381.02,Single-ply,SBD,M,
Boys,109.77,14,Jasiah Tavarez,Dimmitt,101.06,136.08,74.84,151.95,362.87,Single-ply,SBD,M,
Boys,109.77,15,Jackson Campbell,Seminole,103.78,90.72,49.9,108.86,249.48,Single-ply,SBD,M,
Boys,109.77,DQ,Carson Little,Denver City,103.24,208.65,149.69,,,Single-ply,SBD,M,
Boys,124.74,1,Jesus Trabado,Denver City,115.3,217.72,151.95,192.78,562.45,Single-ply,SBD,M,
Boys,124.74,2,Zemere Perez,Plainview,124.47,204.12,124.74,215.46,544.31,Single-ply,SBD,M,
Boys,124.74,3,Derek Mata,Plainview,114.4,210.92,133.81,190.51,535.24,Single-ply,SBD,M,
Boys,124.74,4,Joshua Ortiz,Wolfforth Frenship,119.29,192.78,111.13,195.04,498.95,Single-ply,SBD,M,
Boys,124.74,5,Beau Brewer,Whiteface,115.21,181.44,113.4,188.24,483.08,Single-ply,SBD,M,
Boys,124.74,6,Jaylyn Holmes,Levelland,110.22,90.72,58.97,97.52,247.21,Single-ply,SBD,M,
Boys,139.71,1,Karson Jones,Wolfforth Frenship,132.9,238.14,185.97,272.16,696.26,Single-ply,SBD,M,
Boys,139.71,2,Blaize Whitaker,Wolfforth Frenship,132,226.8,142.88,254.01,623.69,Single-ply,SBD,M,
Boys,139.71,3,Joshua Rangel,Wolfforth Frenship,133.36,208.65,127.01,238.14,573.79,Single-ply,SBD,M,
Boys,139.71,4,John Rodriguez,Levelland,135.62,219.99,156.49,172.37,548.85,Single-ply,SBD,M,
Boys,139.71,5,Xathen Chasco,Tulia,126.1,158.76,113.4,188.24,460.4,Single-ply,SBD,M,
Boys,139.71,DQ,Marc Herrera,Lubbock,139.71,,,,,Single-ply,SBD,M,
Boys,139.71+,1,Jovani Olivares,Lubbock,149.05,249.48,167.83,226.8,644.1,Single-ply,SBD,M,
Boys,139.71+,2,Alfonso Chapa,Kress,156.04,161.03,88.45,149.69,399.16,Single-ply,SBD,M,
