Division,WeightClassKg,Place,Name,Team,BodyweightKg,Best3SquatKg,Best3BenchKg,Best3DeadliftKg,TotalKg,Equipment,Event,Sex,BirthDate
Girls,44.23,1,Ruby Shirley,Woodville,44.13,92.99,47.63,95.25,235.87,Unlimited,SBD,F,
Girls,47.85,1,Kaedlyn Knox,Shepherd,47.4,65.77,40.82,83.91,190.51,Unlimited,SBD,F,
Girls,51.94,1,Sara Ebarb,Shepherd,48.53,127.01,52.16,102.06,281.23,Unlimited,SBD,F,
Girls,51.94,2,Rhea Williams,Woodville,51.71,97.52,43.09,102.06,242.67,Unlimited,SBD,F,
Girls,51.94,3,Deysi Padron,Shepherd,51.26,61.23,24.95,74.84,161.03,Unlimited,SBD,F,
Girls,56.02,1,Tara Greer,Woodville,54.43,106.59,52.16,111.13,269.89,Unlimited,SBD,F,
Girls,56.02,2,Emma McClure,Woodville,54.88,97.52,52.16,108.86,258.55,Unlimited,SBD,F,
Girls,60.1,1,Haley Limbrick,Woodville,59.96,138.35,54.43,142.88,335.66,Unlimited,SBD,F,
Girls,60.1,2,Kylea Lennox,Crockett,59.87,40.82,29.48,56.7,127.01,Unlimited,SBD,F,
Girls,67.36,1,Zelia Williams,Woodville,66.81,183.7,92.99,188.24,464.93,Unlimited,SBD,F,
Girls,67.36,2,Sarya Contreras,Shepherd,66.36,133.81,72.57,111.13,317.51,Unlimited,SBD,F,
Girls,67.36,3,Bailey Fann,Woodville,61.23,117.93,56.7,111.13,285.76,Unlimited,SBD,F,
Girls,67.36,4,Brailey Page,Shepherd,66.68,74.84,52.16,83.91,210.92,Unlimited,SBD,F,
Girls,67.36,5,Rebecca Allen,Crockett,61.69,52.16,38.56,72.57,163.29,Unlimited,SBD,F,
Girls,75.07,1,Kirstin Kangas,Shepherd,69.49,127.01,68.04,113.4,308.44,Unlimited,SBD,F,
Girls,82.33,1,Andrea Villanueva,Crockett,82.1,77.11,36.29,104.33,217.72,Unlimited,SBD,F,
Girls,82.33,2,Alasia Elam,Crockett,82.24,45.36,27.22,58.97,131.54,Unlimited,SBD,F,
Girls,90.04,1,Marissah Shird,Woodville,86.18,120.2,54.43,108.86,283.5,Unlimited,SBD,F,
Girls,100.02,1,Chassidy Hicks,Crockett,99.79,95.25,63.5,113.4,272.16,Unlimited,SBD,F,
Girls,100.02,2,Anai Valencia,Crockett,99.34,70.31,38.56,83.91,192.78,Unlimited,SBD,F,
Girls,110,1,Riley Kinder,Shepherd,102.51,113.4,70.31,86.18,269.89,Unlimited,SBD,F,
Girls,110+,1,Kadence Alexander,Shepherd,118.02,113.4,72.57,111.13,297.1,Unlimited,SBD,F,
