Division,WeightClassKg,Place,Name,Team,BodyweightKg,Best3SquatKg,Best3BenchKg,Best3DeadliftKg,TotalKg,Equipment,Event,Sex,BirthDate
Girls,44.23,1,Daisy Almazan,Dublin,39.64,74.84,38.56,83.91,197.31,Unlimited,SBD,F,
Girls,44.23,2,Kassidy Collett,Hamilton,42.82,65.77,43.09,68.04,176.9,Unlimited,SBD,F,
Girls,47.85,1,Myra Castro,Springtown,46.18,138.35,72.57,127.01,337.93,Unlimited,SBD,F,
Girls,47.85,2,Alyssa Aguero,Ballinger,47.08,99.79,40.82,102.06,242.67,Unlimited,SBD,F,
Girls,47.85,3,Raelyn Graff,Brady,47.72,95.25,45.36,86.18,226.8,Unlimited,SBD,F,
Girls,47.85,4,Kassidy Spinks,Clyde,46.18,61.23,34.02,68.04,163.29,Unlimited,SBD,F,
Girls,47.85,DQ,Marisa Otero,Stephenville,47.72,,36.29,77.11,,Unlimited,SBD,F,
Girls,51.94,1,Caitlyn Coleman,Springtown,50.17,127.01,65.77,117.93,310.71,Unlimited,SBD,F,
Girls,51.94,2,Britney Tyree,Springtown,50.17,117.93,61.23,124.74,303.91,Unlimited,SBD,F,
Girls,51.94,3,Hannah Middleton,Early,51.62,99.79,52.16,113.4,265.35,Unlimited,SBD,F,
Girls,51.94,4,Matty Boswell,Early,50.62,97.52,52.16,106.59,256.28,Unlimited,SBD,F,
Girls,51.94,5,Skyla Hostetter,Ballinger,50.35,83.91,29.48,92.99,206.38,Unlimited,SBD,F,
Girls,51.94,6,Lucero Marquez,Dublin,51.62,74.84,40.82,79.38,195.04,Unlimited,SBD,F,
Girls,51.94,7,Mariah Case,Brady,51.71,79.38,45.36,70.31,195.04,Unlimited,SBD,F,
Girls,51.94,8,Rilee McGee,Stephenville,50.08,72.57,45.36,74.84,192.78,Unlimited,SBD,F,
Girls,51.94,9,Mackenzie Taff,Dublin,51.3,65.77,36.29,79.38,181.44,Unlimited,SBD,F,
Girls,51.94,10,Ashley Agnew,De Leon,51.44,63.5,24.95,74.84,163.29,Unlimited,SBD,F,
Girls,51.94,11,Trinity Gonzales,De Leon,50.44,65.77,27.22,68.04,161.03,Unlimited,SBD,F,
Girls,51.94,DQ,Kendall Smith,Ballinger,49.26,,,,,Unlimited,SBD,F,
Girls,51.94,DQ,Kylie Villareal,Ballinger,51.62,,,,,Unlimited,SBD,F,
Girls,56.02,1,Izzy Durbin,Hawley,54.88,117.93,72.57,142.88,333.39,Unlimited,SBD,F,
Girls,56.02,2,Skyler Tyree,Springtown,55.52,115.67,61.23,138.35,315.25,Unlimited,SBD,F,
Girls,56.02,3,Alexa Hernandez,Early,55.7,127.01,65.77,120.2,312.98,Unlimited,SBD,F,
Girls,56.02,4,Halley Miller,Bangs,55.88,106.59,63.5,122.47,292.57,Unlimited,SBD,F,
Girls,56.02,5,Emma Rutledge,Ballinger,54.79,106.59,49.9,102.06,258.55,Unlimited,SBD,F,
Girls,56.02,6,Ximena Cortes,Venus,55.52,99.79,45.36,104.33,249.48,Unlimited,SBD,F,
Girls,56.02,7,Emily Taylor,Coleman,55.79,83.91,47.63,90.72,222.26,Unlimited,SBD,F,
Girls,56.02,8,Echo McLendon,Stephenville,52.44,88.45,45.36,79.38,213.19,Unlimited,SBD,F,
Girls,56.02,9,Molly Castleberry,Stephenville,52.8,77.11,45.36,79.38,201.85,Unlimited,SBD,F,
Girls,56.02,10,Devani Sanchez,De Leon,53.98,61.23,29.48,90.72,181.44,Unlimited,SBD,F,
Girls,56.02,DQ,Rylie Guerrero,Bangs,55.07,111.13,,,,Unlimited,SBD,F,
Girls,60.1,1,Yasmine Morado,Brady,59.78,142.88,90.72,140.61,374.21,Unlimited,SBD,F,
Girls,60.1,2,Macy Chavez,Springtown,58.69,124.74,70.31,113.4,308.44,Unlimited,SBD,F,
Girls,60.1,3,Renee Aguilar,Hawley,59.06,120.2,61.23,124.74,306.17,Unlimited,SBD,F,
Girls,60.1,4,Marissa Ramirez,Bangs,59.06,111.13,70.31,124.74,306.17,Unlimited,SBD,F,
Girls,60.1,5,Jessica Montgomery,Springtown,59.78,117.93,68.04,111.13,297.1,Unlimited,SBD,F,
Girls,60.1,6,Alexa Copeland,Springtown,58.24,102.06,70.31,113.4,285.76,Unlimited,SBD,F,
Girls,60.1,7,Briella Cervantez,Venus,57.88,120.2,61.23,102.06,283.5,Unlimited,SBD,F,
Girls,60.1,8,Miranda Castanuela,Early,59.87,106.59,56.7,115.67,278.96,Unlimited,SBD,F,
Girls,60.1,9,Lindsay Campos,Bangs,57.97,102.06,65.77,108.86,276.69,Unlimited,SBD,F,
Girls,60.1,10,Chloe Deal,Tuscola Jim Ned,57.42,95.25,52.16,95.25,242.67,Unlimited,SBD,F,
Girls,60.1,11,Taylor Hoag,Venus,59.06,90.72,45.36,88.45,224.53,Unlimited,SBD,F,
Girls,60.1,12,Yasmeen Ramirez,Brady,59.42,86.18,47.63,90.72,224.53,Unlimited,SBD,F,
Girls,60.1,13,Loveli Sanders,Ballinger,57.52,83.91,43.09,92.99,219.99,Unlimited,SBD,F,
Girls,60.1,14,Cassie Rauscher,Stephenville,58.6,77.11,45.36,83.91,206.38,Unlimited,SBD,F,
Girls,60.1,15,Cassie Smith,De Leon,59.42,92.99,29.48,83.91,206.38,Unlimited,SBD,F,
Girls,60.1,16,Keni Drennan,Ballinger,57.06,56.7,34.02,83.91,174.63,Unlimited,SBD,F,
Girls,60.1,17,Nayely Tepetate,De Leon,56.88,70.31,34.02,63.5,167.83,Unlimited,SBD,F,
Girls,60.1,18,A'Shayla Taylor,De Leon,56.34,47.63,24.95,65.77,138.35,Unlimited,SBD,F,
Girls,60.1,DQ,Addison Agnew,De Leon,59.06,47.63,,70.31,,Unlimited,SBD,F,
Girls,60.1,DQ,Erica Jines,Venus,57.15,81.65,,81.65,,Unlimited,SBD,F,
Girls,67.36,1,Sarah Crews,Springtown,64.41,145.15,83.91,145.15,374.21,Unlimited,SBD,F,
Girls,67.36,2,Danielle Alcorta,Early,65.05,147.42,77.11,124.74,349.27,Unlimited,SBD,F,
Girls,67.36,3,Analysia Fuentes,Brady,66.41,131.54,72.57,122.47,326.59,Unlimited,SBD,F,
Girls,67.36,4,Gabby Hernandez,Springtown,66.13,106.59,70.31,113.4,290.3,Unlimited,SBD,F,
Girls,67.36,5,Lauren McKeehan,Coleman,65.68,104.33,61.23,113.4,278.96,Unlimited,SBD,F,
Girls,67.36,6,Madison Pitcox,Brady,66.13,106.59,63.5,102.06,272.16,Unlimited,SBD,F,
Girls,67.36,7,Madison Holloway,Clyde,65.05,99.79,68.04,99.79,267.62,Unlimited,SBD,F,
Girls,67.36,8,Kira Garcia,Ballinger,61.96,108.86,43.09,102.06,254.01,Unlimited,SBD,F,
Girls,67.36,9,Addy Kelley,Hamilton,64.05,83.91,40.82,102.06,226.8,Unlimited,SBD,F,
Girls,67.36,10,Makayla Scales,De Leon,60.87,77.11,43.09,97.52,217.72,Unlimited,SBD,F,
Girls,67.36,11,Abigail Herrera,Ballinger,67.22,83.91,45.36,79.38,208.65,Unlimited,SBD,F,
Girls,67.36,12,Lisa Jasso,Brady,63.78,61.23,47.63,74.84,183.7,Unlimited,SBD,F,
Girls,67.36,13,Braylee Wilson,Hamilton,60.42,61.23,34.02,68.04,163.29,Unlimited,SBD,F,
Girls,75.07,1,Angela Pando,Springtown,72.39,163.29,99.79,154.22,417.3,Unlimited,SBD,F,
Girls,75.07,2,Gracie Galindo,Brady,74.21,113.4,72.57,122.47,308.44,Unlimited,SBD,F,
Girls,75.07,3,Maycee Wilson,Clyde,71.94,104.33,61.23,120.2,285.76,Unlimited,SBD,F,
Girls,75.07,4,Caris Howell,Stephenville,70.22,102.06,68.04,113.4,283.5,Unlimited,SBD,F,
Girls,75.07,5,Kaitlyn Payne,Clyde,75.02,108.86,40.82,115.67,265.35,Unlimited,SBD,F,
Girls,75.07,6,Jordyn Medina,Hamilton,70.13,90.72,49.9,113.4,254.01,Unlimited,SBD,F,
Girls,75.07,7,Carla DeLaCruz,Dublin,71.85,97.52,47.63,102.06,247.21,Unlimited,SBD,F,
Girls,75.07,8,Ariana Soto,Stephenville,71.94,86.18,54.43,90.72,231.33,Unlimited,SBD,F,
Girls,75.07,9,Helena Knutson,Hamilton,72.39,86.18,43.09,102.06,231.33,Unlimited,SBD,F,
Girls,75.07,10,Madison Powell,Stephenville,73.21,88.45,47.63,92.99,229.06,Unlimited,SBD,F,
Girls,75.07,11,Yesinia Avila,Ballinger,69.22,83.91,40.82,90.72,215.46,Unlimited,SBD,F,
Girls,75.07,12,Sofia Velasquez,Clyde,71.12,68.04,36.29,77.11,181.44,Unlimited,SBD,F,
Girls,75.07,DQ,Audrey McKeehan,Coleman,73.75,102.06,,,,Unlimited,SBD,F,
Girls,75.07,DQ,Jaileigh Young,Hamilton,68.4,,38.56,97.52,,Unlimited,SBD,F,
Girls,75.07,DQ,Ly'Anna Hernandez,De Leon,71.21,,40.82,83.91,,Unlimited,SBD,F,
Girls,75.07,DQ,Victoria Brown,Venus,71.94,,52.16,90.72,,Unlimited,SBD,F,
Girls,75.07,DQ,Jaqueline Brown,Venus,69.4,,65.77,124.74,,Unlimited,SBD,F,
Girls,82.33,1,Arianna Rosati,Stephenville,81.37,167.83,92.99,167.83,428.64,Unlimited,SBD,F,
Girls,82.33,2,Alyne Celedon,Early,76.93,147.42,83.91,115.67,347,Unlimited,SBD,F,
Girls,82.33,3,Brianna Herrera,Ballinger,81.74,145.15,61.23,138.35,344.73,Unlimited,SBD,F,
Girls,82.33,DQ,Mia Watson,Coleman,79.92,124.74,74.84,,,Unlimited,SBD,F,
Girls,82.33,DQ,Hannah Jefferson,Coleman,77.93,122.47,72.57,,,Unlimited,SBD,F,
Girls,90.04,1,Maddie Durant,Stephenville,87.09,145.15,74.84,147.42,367.41,Unlimited,SBD,F,
Girls,90.04,2,Marianna Ortiz,Dublin,88.18,142.88,61.23,133.81,337.93,Unlimited,SBD,F,
Girls,90.04,3,Lilly Siegel,Springtown,84.91,92.99,70.31,115.67,278.96,Unlimited,SBD,F,
Girls,90.04,4,Addyson Williams,De Leon,88.09,102.06,61.23,108.86,272.16,Unlimited,SBD,F,
Girls,90.04,5,Priscilla Perez,Dublin,87.72,97.52,54.43,117.93,269.89,Unlimited,SBD,F,
Girls,90.04,DQ,Fabiola Cortez,Dublin,89.09,,,,,Unlimited,SBD,F,
Girls,90.04,DQ,Aubryn Prieto,Brady,84.73,,47.63,77.11,,Unlimited,SBD,F,
Girls,90.04,DQ,Cadence Thrasher,Venus,83.55,,36.29,83.91,,Unlimited,SBD,F,
Girls,100.02,1,Angelica Hernandez,Hawley,93.53,183.7,113.4,158.76,455.86,Unlimited,SBD,F,
Girls,100.02,2,Celeste Alvarez,Dublin,98.88,149.69,102.06,147.42,399.16,Unlimited,SBD,F,
Girls,100.02,3,Liberty Gloyd,Hawley,97.98,142.88,97.52,124.74,365.14,Unlimited,SBD,F,
Girls,100.02,4,Blanca Hernandez,Hawley,96.89,147.42,83.91,120.2,351.53,Unlimited,SBD,F,
Girls,100.02,5,Alexyss Bigham,Coleman,97.89,129.27,79.38,124.74,333.39,Unlimited,SBD,F,
Girls,100.02,6,Carolina Soto,Stephenville,96.07,131.54,68.04,115.67,315.25,Unlimited,SBD,F,
Girls,100.02,7,Adela Ortega,Stephenville,97.98,115.67,58.97,106.59,281.23,Unlimited,SBD,F,
Girls,100.02,8,Morgan Rust,Rising Star,94.17,61.23,34.02,90.72,185.97,Unlimited,SBD,F,
Girls,117.71,1,Angela Chavez,Springtown,102.6,190.51,117.93,163.29,471.74,Unlimited,SBD,F,
Girls,117.71,2,Ruby Aguilar,Hawley,114.31,192.78,95.25,156.49,444.52,Unlimited,SBD,F,
Girls,117.71,3,Alisha Parks,Coleman,117.3,190.51,90.72,145.15,426.38,Unlimited,SBD,F,
Girls,117.71,4,Reaghan Fortner,Springtown,110.77,163.29,104.33,133.81,401.43,Unlimited,SBD,F,
Girls,117.71,5,Gabriela Morgan,Clyde,103.33,147.42,72.57,145.15,365.14,Unlimited,SBD,F,
Girls,117.71,6,Chasiti Ranaghan,Hamilton,113.04,115.67,72.57,124.74,312.98,Unlimited,SBD,F,
Girls,117.71,7,Aubrey Luna,Coleman,109.32,90.72,56.7,86.18,233.6,Unlimited,SBD,F,
Girls,117.71+,1,Courtney Williams #4,Springtown,117.75,142.88,86.18,124.74,353.8,Unlimited,SBD,F,
Girls,117.71+,2,Lesley Phillips,Hawley,117.93,140.61,83.91,117.93,342.46,Unlimited,SBD,F,
Girls,117.71+,3,Hannah Bell,Hamilton,122.83,108.86,72.57,136.08,317.51,Unlimited,SBD,F,
